 %!PS-Adobe-2.0
 %%Creator: GRIDPL
 %%BoundingBox:    50.0000000       50.0000000       554.000000       553.999817    
 %%EndComments
 /c {currentpoint} def /f {fill} def 
 /gr {grestore} def /gs {gsave} def /l {lineto} def 
 /m {moveto} def /n {newpath} def /p {showpage} def 
 /s {stroke} def /sg {setgray} def 
 /w {setlinewidth} def 
 50 50 translate 0.06 0.06 scale 
 1 setlinecap 1 setlinejoin 
 4 w
    0    0 m  8400    0 l 
 8400 8399 l     0 8399 l 
    0    0 l  s 
 1 w
    0   83 m  8400   83 l  s 
    0  170 m  8400  170 l  s 
    0  260 m  8400  260 l  s 
    0  353 m  8400  353 l  s 
    0  448 m  8400  448 l  s 
    0  547 m  8400  547 l  s 
    0  649 m  8400  649 l  s 
    0  755 m  8400  755 l  s 
    0  864 m  8400  864 l  s 
    0  976 m  8400  976 l  s 
    0 1092 m  8400 1092 l  s 
    0 1213 m  8400 1213 l  s 
    0 1337 m  8400 1337 l  s 
    0 1465 m  8400 1465 l  s 
    0 1597 m  8400 1597 l  s 
    0 1734 m  8400 1734 l  s 
    0 1875 m  8400 1875 l  s 
    0 2021 m  8400 2021 l  s 
    0 2172 m  8400 2172 l  s 
    0 2328 m  8400 2328 l  s 
    0 2489 m  8400 2489 l  s 
    0 2655 m  8400 2655 l  s 
    0 2827 m  8400 2827 l  s 
    0 3005 m  8400 3005 l  s 
    0 3188 m  8400 3188 l  s 
    0 3377 m  8400 3377 l  s 
    0 3573 m  8400 3573 l  s 
    0 3775 m  8400 3775 l  s 
    0 3984 m  8400 3984 l  s 
    0 4199 m  8400 4199 l  s 
    0 4415 m  8400 4415 l  s 
    0 4624 m  8400 4624 l  s 
    0 4826 m  8400 4826 l  s 
    0 5022 m  8400 5022 l  s 
    0 5211 m  8400 5211 l  s 
    0 5394 m  8400 5394 l  s 
    0 5572 m  8400 5572 l  s 
    0 5744 m  8400 5744 l  s 
    0 5910 m  8400 5910 l  s 
    0 6071 m  8400 6071 l  s 
    0 6227 m  8400 6227 l  s 
    0 6378 m  8400 6378 l  s 
    0 6524 m  8400 6524 l  s 
    0 6665 m  8400 6665 l  s 
    0 6802 m  8400 6802 l  s 
    0 6934 m  8400 6934 l  s 
    0 7062 m  8400 7062 l  s 
    0 7186 m  8400 7186 l  s 
    0 7307 m  8400 7307 l  s 
    0 7423 m  8400 7423 l  s 
    0 7535 m  8400 7535 l  s 
    0 7644 m  8400 7644 l  s 
    0 7750 m  8400 7750 l  s 
    0 7852 m  8400 7852 l  s 
    0 7951 m  8400 7951 l  s 
    0 8046 m  8400 8046 l  s 
    0 8139 m  8400 8139 l  s 
    0 8229 m  8400 8229 l  s 
    0 8315 m  8400 8315 l  s 
  103    0 m   103 8399 l  s 
  209    0 m   209 8399 l  s 
  316    0 m   316 8399 l  s 
  426    0 m   426 8399 l  s 
  538    0 m   538 8399 l  s 
  653    0 m   653 8399 l  s 
  769    0 m   769 8399 l  s 
  888    0 m   888 8399 l  s 
 1009    0 m  1009 8399 l  s 
 1133    0 m  1133 8399 l  s 
 1259    0 m  1259 8399 l  s 
 1388    0 m  1388 8399 l  s 
 1519    0 m  1519 8399 l  s 
 1653    0 m  1653 8399 l  s 
 1790    0 m  1790 8399 l  s 
 1929    0 m  1929 8399 l  s 
 2071    0 m  2071 8399 l  s 
 2216    0 m  2216 8399 l  s 
 2364    0 m  2364 8399 l  s 
 2515    0 m  2515 8399 l  s 
 2669    0 m  2669 8399 l  s 
 2826    0 m  2826 8399 l  s 
 2986    0 m  2986 8399 l  s 
 3149    0 m  3149 8399 l  s 
 3316    0 m  3316 8399 l  s 
 3485    0 m  3485 8399 l  s 
 3659    0 m  3659 8399 l  s 
 3835    0 m  3835 8399 l  s 
 4016    0 m  4016 8399 l  s 
 4199    0 m  4199 8399 l  s 
 4383    0 m  4383 8399 l  s 
 4564    0 m  4564 8399 l  s 
 4740    0 m  4740 8399 l  s 
 4914    0 m  4914 8399 l  s 
 5083    0 m  5083 8399 l  s 
 5250    0 m  5250 8399 l  s 
 5413    0 m  5413 8399 l  s 
 5573    0 m  5573 8399 l  s 
 5730    0 m  5730 8399 l  s 
 5884    0 m  5884 8399 l  s 
 6035    0 m  6035 8399 l  s 
 6183    0 m  6183 8399 l  s 
 6328    0 m  6328 8399 l  s 
 6470    0 m  6470 8399 l  s 
 6609    0 m  6609 8399 l  s 
 6746    0 m  6746 8399 l  s 
 6880    0 m  6880 8399 l  s 
 7011    0 m  7011 8399 l  s 
 7140    0 m  7140 8399 l  s 
 7266    0 m  7266 8399 l  s 
 7390    0 m  7390 8399 l  s 
 7511    0 m  7511 8399 l  s 
 7630    0 m  7630 8399 l  s 
 7746    0 m  7746 8399 l  s 
 7861    0 m  7861 8399 l  s 
 7973    0 m  7973 8399 l  s 
 8083    0 m  8083 8399 l  s 
 8190    0 m  8190 8399 l  s 
 8296    0 m  8296 8399 l  s 
 p 
