 %!PS-Adobe-2.0
 %%Creator: PLOTP
 %%BoundingBox:    50.0000000       50.0000000       558.999451       559.000000    
 %%EndComments
 /c {currentpoint} def /f {fill} def 
 /gr {grestore} def /gs {gsave} def /l {lineto} def 
 /m {moveto} def /n {newpath} def /p {showpage} def 
 /s {stroke} def /sg {setgray} def 
 /w {setlinewidth} def /cp {closepath} def
 /col {setrgbcolor} def
 50 50 translate 0.06 0.06 scale 
 1 setlinecap 1 setlinejoin 
 0. 0. 0. col
 40 w
    0    0 m 
    0   83 l 
    0  168 l 
    0  254 l 
    0  341 l 
    0  429 l 
    0  518 l 
    0  607 l 
    0  698 l 
    0  790 l 
    0  883 l 
    0  976 l 
    0 1071 l 
    0 1167 l 
    0 1264 l 
    0 1362 l 
    0 1461 l 
    0 1561 l 
    0 1663 l 
    0 1765 l 
    0 1869 l 
    0 1974 l 
    0 2079 l 
    0 2187 l 
    0 2295 l 
    0 2404 l 
    0 2515 l 
    0 2627 l 
    0 2740 l 
    0 2854 l 
    0 2970 l 
    0 3087 l 
    0 3205 l 
    0 3325 l 
    0 3446 l 
    0 3568 l 
    0 3691 l 
    0 3816 l 
    0 3943 l 
    0 4070 l 
    0 4199 l 
    0 4329 l 
    0 4456 l 
    0 4583 l 
    0 4708 l 
    0 4831 l 
    0 4953 l 
    0 5074 l 
    0 5194 l 
    0 5312 l 
    0 5429 l 
    0 5545 l 
    0 5659 l 
    0 5772 l 
    0 5884 l 
    0 5995 l 
    0 6104 l 
    0 6212 l 
    0 6320 l 
    0 6425 l 
    0 6530 l 
    0 6634 l 
    0 6736 l 
    0 6838 l 
    0 6938 l 
    0 7037 l 
    0 7135 l 
    0 7232 l 
    0 7328 l 
    0 7423 l 
    0 7516 l 
    0 7609 l 
    0 7701 l 
    0 7792 l 
    0 7881 l 
    0 7970 l 
    0 8058 l 
    0 8145 l 
    0 8231 l 
    0 8315 l 
    0 8400 l 
   69 8400 l 
  140 8400 l 
  212 8400 l 
  286 8400 l 
  361 8400 l 
  438 8400 l 
  516 8400 l 
  596 8400 l 
  678 8400 l 
  761 8400 l 
  846 8400 l 
  932 8400 l 
 1020 8400 l 
 1110 8400 l 
 1202 8400 l 
 1296 8400 l 
 1391 8400 l 
 1488 8400 l 
 1588 8400 l 
 1689 8400 l 
 1792 8400 l 
 1898 8400 l 
 2005 8400 l 
 2115 8400 l 
 2227 8400 l 
 2341 8400 l 
 2457 8400 l 
 2576 8400 l 
 2697 8400 l 
 2820 8400 l 
 2946 8400 l 
 3075 8400 l 
 3206 8400 l 
 3339 8400 l 
 3476 8400 l 
 3615 8400 l 
 3757 8400 l 
 3901 8400 l 
 4049 8400 l 
 4199 8400 l 
 4350 8400 l 
 4498 8400 l 
 4642 8400 l 
 4784 8400 l 
 4923 8400 l 
 5060 8400 l 
 5193 8400 l 
 5324 8400 l 
 5453 8400 l 
 5579 8400 l 
 5702 8400 l 
 5823 8400 l 
 5942 8400 l 
 6058 8400 l 
 6172 8400 l 
 6284 8400 l 
 6394 8400 l 
 6501 8400 l 
 6607 8400 l 
 6710 8400 l 
 6811 8400 l 
 6911 8400 l 
 7008 8400 l 
 7103 8400 l 
 7197 8400 l 
 7289 8400 l 
 7379 8400 l 
 7467 8400 l 
 7553 8400 l 
 7638 8400 l 
 7721 8400 l 
 7803 8400 l 
 7883 8400 l 
 7961 8400 l 
 8038 8400 l 
 8113 8400 l 
 8187 8400 l 
 8259 8400 l 
 8330 8400 l 
 8399 8400 l 
 8399 8315 l 
 8399 8231 l 
 8399 8145 l 
 8399 8058 l 
 8399 7970 l 
 8399 7881 l 
 8399 7792 l 
 8399 7701 l 
 8399 7609 l 
 8399 7516 l 
 8399 7423 l 
 8399 7328 l 
 8399 7232 l 
 8399 7135 l 
 8399 7037 l 
 8399 6938 l 
 8399 6838 l 
 8399 6736 l 
 8399 6634 l 
 8399 6530 l 
 8399 6425 l 
 8399 6320 l 
 8399 6212 l 
 8399 6104 l 
 8399 5995 l 
 8399 5884 l 
 8399 5772 l 
 8399 5659 l 
 8399 5545 l 
 8399 5429 l 
 8399 5312 l 
 8399 5194 l 
 8399 5074 l 
 8399 4953 l 
 8399 4831 l 
 8399 4708 l 
 8399 4583 l 
 8399 4456 l 
 8399 4329 l 
 8399 4199 l 
 8399 4070 l 
 8399 3943 l 
 8399 3816 l 
 8399 3691 l 
 8399 3568 l 
 8399 3446 l 
 8399 3325 l 
 8399 3205 l 
 8399 3087 l 
 8399 2970 l 
 8399 2854 l 
 8399 2740 l 
 8399 2627 l 
 8399 2515 l 
 8399 2404 l 
 8399 2295 l 
 8399 2187 l 
 8399 2079 l 
 8399 1974 l 
 8399 1869 l 
 8399 1765 l 
 8399 1663 l 
 8399 1561 l 
 8399 1461 l 
 8399 1362 l 
 8399 1264 l 
 8399 1167 l 
 8399 1071 l 
 8399  976 l 
 8399  883 l 
 8399  790 l 
 8399  698 l 
 8399  607 l 
 8399  518 l 
 8399  429 l 
 8399  341 l 
 8399  254 l 
 8399  168 l 
 8399   83 l 
 8399    0 l 
 8330    0 l 
 8259    0 l 
 8187    0 l 
 8113    0 l 
 8038    0 l 
 7961    0 l 
 7883    0 l 
 7803    0 l 
 7721    0 l 
 7638    0 l 
 7553    0 l 
 7467    0 l 
 7379    0 l 
 7289    0 l 
 7197    0 l 
 7103    0 l 
 7008    0 l 
 6911    0 l 
 6811    0 l 
 6710    0 l 
 6607    0 l 
 6501    0 l 
 6394    0 l 
 6284    0 l 
 6172    0 l 
 6058    0 l 
 5942    0 l 
 5823    0 l 
 5702    0 l 
 5579    0 l 
 5453    0 l 
 5324    0 l 
 5193    0 l 
 5060    0 l 
 4923    0 l 
 4784    0 l 
 4642    0 l 
 4498    0 l 
 4350    0 l 
 4199    0 l 
 4049    0 l 
 3901    0 l 
 3757    0 l 
 3615    0 l 
 3476    0 l 
 3339    0 l 
 3206    0 l 
 3075    0 l 
 2946    0 l 
 2820    0 l 
 2697    0 l 
 2576    0 l 
 2457    0 l 
 2341    0 l 
 2227    0 l 
 2115    0 l 
 2005    0 l 
 1898    0 l 
 1792    0 l 
 1689    0 l 
 1588    0 l 
 1488    0 l 
 1391    0 l 
 1296    0 l 
 1202    0 l 
 1110    0 l 
 1020    0 l 
  932    0 l 
  846    0 l 
  761    0 l 
  678    0 l 
  596    0 l 
  516    0 l 
  438    0 l 
  361    0 l 
  286    0 l 
  212    0 l 
  140    0 l 
   69    0 l 
    0    0 l 
 s
 20 w 
   1.00000000       0.00000000       1.00000000      col
          11        8358  m
           0        8346  l
 s
          11        8358  m
          34        8392  l
          33        8400  l
           0        8361  l
          11        8358  l
 s
          38        8400  m
          34        8392  l
 s
   1.00000000       0.00000000      0.833333313      col
          34        8356  m
           0        8324  l
 s
          27        8400  m
           0        8368  l
 s
          35        8358  m
          34        8356  l
 s
          35        8358  m
          54        8400  l
 s
   1.00000000       0.00000000      0.666666627      col
          34        8321  m
           0        8302  l
 s
          21        8400  m
           0        8375  l
 s
          59        8358  m
          34        8321  l
 s
          59        8358  m
          70        8400  l
 s
   1.00000000       0.00000000      0.500000000      col
          34        8286  m
           0        8279  l
 s
          15        8400  m
           0        8382  l
 s
          82        8358  m
          34        8286  l
 s
          82        8358  m
          86        8400  l
 s
        2636        4575  m
        2631        4645  l
 s
        2631        4645  m
        2631        4769  l
 s
        2631        4769  m
        2636        4836  l
 s
        2759        4079  m
        2736        4135  l
 s
        2736        4135  m
        2694        4264  l
 s
        2694        4264  m
        2662        4393  l
 s
        2662        4393  m
        2641        4520  l
 s
        2641        4520  m
        2636        4575  l
 s
        2641        4892  m
        2636        4836  l
 s
        2641        4892  m
        2662        5014  l
 s
        2662        5014  m
        2692        5134  l
 s
        2692        5134  m
        2732        5253  l
 s
        2732        5253  m
        2759        5319  l
 s
        2883        3832  m
        2855        3879  l
 s
        2855        3879  m
        2790        4006  l
 s
        2790        4006  m
        2759        4079  l
 s
        2781        5371  m
        2759        5319  l
 s
        2781        5371  m
        2841        5487  l
 s
        2841        5487  m
        2883        5558  l
 s
        3011        3646  m
        2933        3754  l
 s
        2933        3754  m
        2883        3832  l
 s
        2910        5602  m
        2883        5558  l
 s
        2910        5602  m
        2990        5716  l
 s
        2990        5716  m
        3011        5743  l
 s
        3140        3495  m
        3129        3507  l
 s
        3129        3507  m
        3023        3630  l
 s
        3023        3630  m
        3011        3646  l
 s
        3080        5828  m
        3011        5743  l
 s
        3080        5828  m
        3140        5897  l
 s
        3273        3370  m
        3255        3385  l
 s
        3255        3385  m
        3140        3495  l
 s
        3179        5939  m
        3140        5897  l
 s
        3179        5939  m
        3273        6034  l
 s
        3408        3264  m
        3406        3265  l
 s
        3406        3265  m
        3273        3370  l
 s
        3289        6049  m
        3273        6034  l
 s
        3289        6049  m
        3408        6157  l
 s
        3545        3176  m
        3408        3264  l
 s
        3409        6158  m
        3408        6157  l
 s
        3409        6158  m
        3543        6266  l
 s
        3543        6266  m
        3545        6268  l
 s
        3686        3103  m
        3600        3146  l
 s
        3600        3146  m
        3545        3176  l
 s
        3686        6368  m
        3545        6268  l
 s
        3829        3043  m
        3686        3103  l
 s
        3692        6372  m
        3686        6368  l
 s
        3692        6372  m
        3829        6458  l
 s
        3975        2997  m
        3873        3028  l
 s
        3873        3028  m
        3829        3043  l
 s
        3866        6478  m
        3829        6458  l
 s
        3866        6478  m
        3975        6536  l
 s
        4124        2965  m
        3975        2997  l
 s
        4081        6582  m
        3975        6536  l
 s
        4081        6582  m
        4124        6601  l
 s
        4275        2945  m
        4124        2965  l
 s
        4275        6649  m
        4124        6601  l
 s
        4424        2939  m
        4275        2945  l
 s
        4424        6677  m
        4275        6649  l
 s
        4570        2945  m
        4424        2939  l
 s
        4570        6684  m
        4424        6677  l
 s
        4713        2962  m
        4570        2945  l
 s
        4713        6670  m
        4570        6684  l
 s
        4854        2989  m
        4713        2962  l
 s
        4854        6635  m
        4713        6670  l
 s
        4991        3026  m
        4854        2989  l
 s
        4991        6581  m
        4989        6582  l
 s
        4989        6582  m
        4854        6635  l
 s
        4998        3028  m
        4991        3026  l
 s
        4998        3028  m
        5126        3075  l
 s
        5126        6508  m
        4991        6581  l
 s
        5259        3132  m
        5126        3075  l
 s
        5259        6420  m
        5173        6478  l
 s
        5173        6478  m
        5126        6508  l
 s
        5287        3146  m
        5259        3132  l
 s
        5287        3146  m
        5388        3200  l
 s
        5388        6319  m
        5321        6372  l
 s
        5321        6372  m
        5259        6420  l
 s
        5495        3265  m
        5388        3200  l
 s
        5495        3265  m
        5516        3278  l
 s
        5516        6207  m
        5449        6266  l
 s
        5449        6266  m
        5388        6319  l
 s
        5640        3368  m
        5516        3278  l
 s
        5640        6086  m
        5566        6158  l
 s
        5566        6158  m
        5516        6207  l
 s
        5662        3385  m
        5640        3368  l
 s
        5662        3385  m
        5763        3472  l
 s
        5763        5956  m
        5675        6049  l
 s
        5675        6049  m
        5640        6086  l
 s
        5800        3507  m
        5763        3472  l
 s
        5800        3507  m
        5883        3590  l
 s
        5883        5816  m
        5872        5828  l
 s
        5872        5828  m
        5777        5939  l
 s
        5777        5939  m
        5763        5956  l
 s
        5919        3630  m
        5883        3590  l
 s
        5919        3630  m
        6000        3726  l
 s
        6000        5663  m
        5961        5716  l
 s
        5961        5716  m
        5883        5816  l
 s
        6022        3754  m
        6000        3726  l
 s
        6022        3754  m
        6111        3879  l
 s
        6111        3879  m
        6115        3886  l
 s
        6115        5495  m
        6044        5602  l
 s
        6044        5602  m
        6000        5663  l
 s
        6186        4006  m
        6115        3886  l
 s
        6186        4006  m
        6228        4091  l
 s
        6228        5291  m
        6188        5371  l
 s
        6188        5371  m
        6121        5487  l
 s
        6121        5487  m
        6115        5495  l
 s
        6250        4135  m
        6228        4091  l
 s
        6250        4135  m
        6300        4264  l
 s
        6300        4264  m
        6338        4393  l
 s
        6338        4393  m
        6339        4396  l
 s
        6339        4990  m
        6334        5014  l
 s
        6334        5014  m
        6296        5134  l
 s
        6296        5134  m
        6247        5253  l
 s
        6247        5253  m
        6228        5291  l
 s
        6363        4520  m
        6339        4396  l
 s
        6363        4520  m
        6374        4645  l
 s
        6374        4645  m
        6373        4769  l
 s
        6373        4769  m
        6360        4892  l
 s
        6360        4892  m
        6339        4990  l
 s
   1.00000000       0.00000000      0.333333313      col
          34        8214  m
           0        8214  l
 s
           9        8400  m
           0        8389  l
 s
         104        8216  m
          34        8214  l
 s
         104        8371  m
         103        8400  l
 s
         176        8266  m
         104        8216  l
 s
         176        8277  m
         110        8358  l
 s
         110        8358  m
         104        8371  l
 s
         185        8273  m
         176        8266  l
 s
         185        8273  m
         176        8277  l
 s
        1538        4654  m
        1531        4769  l
 s
        1531        4769  m
        1532        4892  l
 s
        1532        4892  m
        1538        4985  l
 s
        1638        4156  m
        1607        4264  l
 s
        1607        4264  m
        1576        4393  l
 s
        1576        4393  m
        1554        4520  l
 s
        1554        4520  m
        1539        4645  l
 s
        1539        4645  m
        1538        4654  l
 s
        1540        5014  m
        1538        4985  l
 s
        1540        5014  m
        1556        5134  l
 s
        1556        5134  m
        1581        5253  l
 s
        1581        5253  m
        1613        5371  l
 s
        1613        5371  m
        1638        5443  l
 s
        1741        3874  m
        1738        3879  l
 s
        1738        3879  m
        1688        4006  l
 s
        1688        4006  m
        1644        4135  l
 s
        1644        4135  m
        1638        4156  l
 s
        1654        5487  m
        1638        5443  l
 s
        1654        5487  m
        1702        5602  l
 s
        1702        5602  m
        1741        5678  l
 s
        1845        3648  m
        1793        3754  l
 s
        1793        3754  m
        1741        3874  l
 s
        1760        5716  m
        1741        5678  l
 s
        1760        5716  m
        1826        5828  l
 s
        1826        5828  m
        1845        5857  l
 s
        1951        3451  m
        1920        3507  l
 s
        1920        3507  m
        1854        3630  l
 s
        1854        3630  m
        1845        3648  l
 s
        1900        5939  m
        1845        5857  l
 s
        1900        5939  m
        1951        6007  l
 s
        2060        3274  m
        1990        3385  l
 s
        1990        3385  m
        1951        3451  l
 s
        1984        6049  m
        1951        6007  l
 s
        1984        6049  m
        2060        6140  l
 s
        2171        3115  m
        2148        3146  l
 s
        2148        3146  m
        2066        3265  l
 s
        2066        3265  m
        2060        3274  l
 s
        2076        6158  m
        2060        6140  l
 s
        2076        6158  m
        2171        6261  l
 s
        2284        2969  m
        2236        3028  l
 s
        2236        3028  m
        2171        3115  l
 s
        2175        6266  m
        2171        6261  l
 s
        2175        6266  m
        2281        6372  l
 s
        2281        6372  m
        2284        6375  l
 s
        2399        2834  m
        2331        2912  l
 s
        2331        2912  m
        2284        2969  l
 s
        2393        6478  m
        2284        6375  l
 s
        2393        6478  m
        2399        6483  l
 s
        2516        2711  m
        2433        2797  l
 s
        2433        2797  m
        2399        2834  l
 s
        2507        6582  m
        2399        6483  l
 s
        2507        6582  m
        2516        6590  l
 s
        2636        2598  m
        2545        2683  l
 s
        2545        2683  m
        2516        2711  l
 s
        2624        6685  m
        2516        6590  l
 s
        2624        6685  m
        2636        6696  l
 s
        2759        2495  m
        2668        2571  l
 s
        2668        2571  m
        2636        2598  l
 s
        2741        6787  m
        2636        6696  l
 s
        2741        6787  m
        2759        6802  l
 s
        2883        2401  m
        2805        2460  l
 s
        2805        2460  m
        2759        2495  l
 s
        2856        6888  m
        2759        6802  l
 s
        2856        6888  m
        2883        6911  l
 s
        3011        2316  m
        2959        2349  l
 s
        2959        2349  m
        2883        2401  l
 s
        2969        6987  m
        2883        6911  l
 s
        2969        6987  m
        3011        7024  l
 s
        3140        2239  m
        3137        2241  l
 s
        3137        2241  m
        3011        2316  l
 s
        3079        7086  m
        3011        7024  l
 s
        3079        7086  m
        3140        7143  l
 s
        3273        2171  m
        3140        2239  l
 s
        3185        7183  m
        3140        7143  l
 s
        3185        7183  m
        3273        7269  l
 s
        3408        2111  m
        3356        2133  l
 s
        3356        2133  m
        3273        2171  l
 s
        3284        7280  m
        3273        7269  l
 s
        3284        7280  m
        3379        7375  l
 s
        3379        7375  m
        3408        7407  l
 s
        3545        2059  m
        3408        2111  l
 s
        3467        7469  m
        3408        7407  l
 s
        3467        7469  m
        3545        7561  l
 s
        3686        2016  m
        3650        2027  l
 s
        3650        2027  m
        3545        2059  l
 s
        3547        7563  m
        3545        7561  l
 s
        3547        7563  m
        3621        7655  l
 s
        3621        7655  m
        3684        7746  l
 s
        3684        7746  m
        3686        7750  l
 s
        3829        1981  m
        3686        2016  l
 s
        3741        7836  m
        3686        7750  l
 s
        3741        7836  m
        3788        7926  l
 s
        3788        7926  m
        3827        8014  l
 s
        3827        8014  m
        3829        8019  l
 s
        3975        1955  m
        3829        1981  l
 s
        3864        8101  m
        3829        8019  l
 s
        3864        8101  m
        3895        8188  l
 s
        3895        8188  m
        3922        8273  l
 s
        3922        8273  m
        3940        8358  l
 s
        3940        8358  m
        3949        8400  l
 s
        4124        1938  m
        3975        1955  l
 s
        4275        1930  m
        4124        1938  l
 s
        4424        1930  m
        4275        1930  l
 s
        4570        1939  m
        4424        1930  l
 s
        4713        1955  m
        4570        1939  l
 s
        4854        1977  m
        4713        1955  l
 s
        4991        2006  m
        4854        1977  l
 s
        5075        2027  m
        4991        2006  l
 s
        5075        2027  m
        5126        2040  l
 s
        5259        2080  m
        5126        2040  l
 s
        5388        2125  m
        5259        2080  l
 s
        5410        2133  m
        5388        2125  l
 s
        5410        2133  m
        5516        2175  l
 s
        5640        2231  m
        5516        2175  l
 s
        5661        2241  m
        5640        2231  l
 s
        5661        2241  m
        5763        2292  l
 s
        5763        7843  m
        5741        7926  l
 s
        5741        7926  m
        5721        8014  l
 s
        5721        8014  m
        5704        8101  l
 s
        5704        8101  m
        5690        8188  l
 s
        5690        8188  m
        5679        8273  l
 s
        5679        8273  m
        5680        8358  l
 s
        5680        8358  m
        5681        8400  l
 s
        5867        2349  m
        5763        2292  l
 s
        5867        2349  m
        5883        2359  l
 s
        5883        7490  m
        5851        7563  l
 s
        5851        7563  m
        5817        7655  l
 s
        5817        7655  m
        5788        7746  l
 s
        5788        7746  m
        5764        7836  l
 s
        5764        7836  m
        5763        7843  l
 s
        6000        2432  m
        5883        2359  l
 s
        6000        7257  m
        5986        7280  l
 s
        5986        7280  m
        5935        7375  l
 s
        5935        7375  m
        5891        7469  l
 s
        5891        7469  m
        5883        7490  l
 s
        6042        2460  m
        6000        2432  l
 s
        6042        2460  m
        6115        2510  l
 s
        6115        7071  m
        6105        7086  l
 s
        6105        7086  m
        6042        7183  l
 s
        6042        7183  m
        6000        7257  l
 s
        6197        2571  m
        6115        2510  l
 s
        6197        2571  m
        6228        2595  l
 s
        6228        6913  m
        6172        6987  l
 s
        6172        6987  m
        6115        7071  l
 s
        6337        2683  m
        6228        2595  l
 s
        6337        2683  m
        6339        2685  l
 s
        6339        6772  m
        6326        6787  l
 s
        6326        6787  m
        6247        6888  l
 s
        6247        6888  m
        6228        6913  l
 s
        6448        2782  m
        6339        2685  l
 s
        6448        6645  m
        6412        6685  l
 s
        6412        6685  m
        6339        6772  l
 s
        6463        2797  m
        6448        2782  l
 s
        6463        2797  m
        6554        2886  l
 s
        6554        6530  m
        6505        6582  l
 s
        6505        6582  m
        6448        6645  l
 s
        6579        2912  m
        6554        2886  l
 s
        6579        2912  m
        6658        2997  l
 s
        6658        6424  m
        6605        6478  l
 s
        6605        6478  m
        6554        6530  l
 s
        6687        3028  m
        6658        2997  l
 s
        6687        3028  m
        6761        3114  l
 s
        6761        6326  m
        6712        6372  l
 s
        6712        6372  m
        6658        6424  l
 s
        6788        3146  m
        6761        3114  l
 s
        6788        3146  m
        6861        3237  l
 s
        6861        6235  m
        6827        6266  l
 s
        6827        6266  m
        6761        6326  l
 s
        6883        3265  m
        6861        3237  l
 s
        6883        3265  m
        6959        3367  l
 s
        6959        6152  m
        6952        6158  l
 s
        6952        6158  m
        6861        6235  l
 s
        6972        3385  m
        6959        3367  l
 s
        6972        3385  m
        7056        3504  l
 s
        7056        6072  m
        6959        6152  l
 s
        7058        3507  m
        7056        3504  l
 s
        7058        3507  m
        7138        3630  l
 s
        7138        3630  m
        7150        3649  l
 s
        7150        5997  m
        7086        6049  l
 s
        7086        6049  m
        7056        6072  l
 s
        7215        3754  m
        7150        3649  l
 s
        7215        3754  m
        7243        3802  l
 s
        7243        5926  m
        7227        5939  l
 s
        7227        5939  m
        7150        5997  l
 s
        7288        3879  m
        7243        3802  l
 s
        7288        3879  m
        7334        3963  l
 s
        7334        5855  m
        7243        5926  l
 s
        7358        4006  m
        7334        3963  l
 s
        7358        4006  m
        7423        4132  l
 s
        7423        5781  m
        7368        5828  l
 s
        7368        5828  m
        7334        5855  l
 s
        7424        4135  m
        7423        4132  l
 s
        7424        4135  m
        7486        4264  l
 s
        7486        4264  m
        7510        4318  l
 s
        7510        5701  m
        7497        5716  l
 s
        7497        5716  m
        7423        5781  l
 s
        7544        4393  m
        7510        4318  l
 s
        7544        4393  m
        7596        4519  l
 s
        7596        5605  m
        7510        5701  l
 s
        7596        4520  m
        7596        4519  l
 s
        7596        4520  m
        7642        4645  l
 s
        7642        4645  m
        7680        4766  l
 s
        7680        5462  m
        7669        5487  l
 s
        7669        5487  m
        7598        5602  l
 s
        7598        5602  m
        7596        5605  l
 s
        7681        4769  m
        7680        4766  l
 s
        7681        4769  m
        7712        4892  l
 s
        7712        4892  m
        7733        5014  l
 s
        7733        5014  m
        7742        5134  l
 s
        7742        5134  m
        7737        5253  l
 s
        7737        5253  m
        7714        5371  l
 s
        7714        5371  m
        7680        5462  l
 s
   1.00000000       0.00000000      0.166666627      col
          34        3910  m
           0        3911  l
 s
           3        8400  m
           0        8395  l
 s
         104        3908  m
          34        3910  l
 s
         176        3901  m
         104        3908  l
 s
         176        8393  m
         172        8400  l
 s
         249        3889  m
         176        3901  l
 s
         249        8377  m
         176        8393  l
 s
         324        3869  m
         284        3879  l
 s
         284        3879  m
         249        3889  l
 s
         324        8367  m
         249        8377  l
 s
         400        3842  m
         324        3869  l
 s
         400        8359  m
         324        8367  l
 s
         477        3804  m
         400        3842  l
 s
         477        8350  m
         417        8358  l
 s
         417        8358  m
         400        8359  l
 s
         556        3755  m
         477        3804  l
 s
         556        8332  m
         477        8350  l
 s
         637        3697  m
         558        3754  l
 s
         558        3754  m
         556        3755  l
 s
         637        8299  m
         556        8332  l
 s
         719        3627  m
         716        3630  l
 s
         716        3630  m
         637        3697  l
 s
         719        7648  m
         717        7655  l
 s
         717        7655  m
         690        7746  l
 s
         690        7746  m
         676        7836  l
 s
         676        7836  m
         675        7926  l
 s
         675        7926  m
         684        8014  l
 s
         684        8014  m
         697        8101  l
 s
         697        8101  m
         698        8188  l
 s
         698        8188  m
         681        8273  l
 s
         681        8273  m
         637        8299  l
 s
         803        3547  m
         719        3627  l
 s
         803        7453  m
         795        7469  l
 s
         795        7469  m
         750        7563  l
 s
         750        7563  m
         719        7648  l
 s
         889        3457  m
         841        3507  l
 s
         841        3507  m
         803        3547  l
 s
         889        7310  m
         846        7375  l
 s
         846        7375  m
         803        7453  l
 s
         976        3358  m
         952        3385  l
 s
         952        3385  m
         889        3457  l
 s
         976        7201  m
         910        7280  l
 s
         910        7280  m
         889        7310  l
 s
        1065        3251  m
        1054        3265  l
 s
        1054        3265  m
         976        3358  l
 s
        1065        7122  m
         994        7183  l
 s
         994        7183  m
         976        7201  l
 s
        1156        3137  m
        1149        3146  l
 s
        1149        3146  m
        1065        3251  l
 s
        1156        7070  m
        1125        7086  l
 s
        1125        7086  m
        1065        7122  l
 s
        1249        3018  m
        1240        3028  l
 s
        1240        3028  m
        1156        3137  l
 s
        1249        7037  m
        1156        7070  l
 s
        1343        2895  m
        1330        2912  l
 s
        1330        2912  m
        1249        3018  l
 s
        1343        7022  m
        1249        7037  l
 s
        1440        2770  m
        1418        2797  l
 s
        1418        2797  m
        1343        2895  l
 s
        1440        7021  m
        1343        7022  l
 s
        1538        2645  m
        1507        2683  l
 s
        1507        2683  m
        1440        2770  l
 s
        1538        7032  m
        1440        7021  l
 s
        1638        2522  m
        1598        2571  l
 s
        1598        2571  m
        1538        2645  l
 s
        1638        7054  m
        1538        7032  l
 s
        1741        2402  m
        1691        2460  l
 s
        1691        2460  m
        1638        2522  l
 s
        1741        7085  m
        1638        7054  l
 s
        1845        2286  m
        1787        2349  l
 s
        1787        2349  m
        1741        2402  l
 s
        1744        7086  m
        1741        7085  l
 s
        1744        7086  m
        1845        7125  l
 s
        1951        2174  m
        1887        2241  l
 s
        1887        2241  m
        1845        2286  l
 s
        1951        7174  m
        1845        7125  l
 s
        2060        2067  m
        1992        2133  l
 s
        1992        2133  m
        1951        2174  l
 s
        1969        7183  m
        1951        7174  l
 s
        1969        7183  m
        2060        7233  l
 s
        2171        1966  m
        2104        2027  l
 s
        2104        2027  m
        2060        2067  l
 s
        2136        7280  m
        2060        7233  l
 s
        2136        7280  m
        2171        7301  l
 s
        2284        1870  m
        2223        1921  l
 s
        2223        1921  m
        2171        1966  l
 s
        2275        7375  m
        2171        7301  l
 s
        2275        7375  m
        2284        7382  l
 s
        2399        1780  m
        2351        1817  l
 s
        2351        1817  m
        2284        1870  l
 s
        2391        7469  m
        2284        7382  l
 s
        2391        7469  m
        2399        7477  l
 s
        2516        1695  m
        2490        1714  l
 s
        2490        1714  m
        2399        1780  l
 s
        2489        7563  m
        2399        7477  l
 s
        2489        7563  m
        2516        7591  l
 s
        2636        1616  m
        2516        1695  l
 s
        2573        7655  m
        2516        7591  l
 s
        2573        7655  m
        2636        7735  l
 s
        2759        1541  m
        2642        1612  l
 s
        2642        1612  m
        2636        1616  l
 s
        2645        7746  m
        2636        7735  l
 s
        2645        7746  m
        2703        7836  l
 s
        2703        7836  m
        2752        7926  l
 s
        2752        7926  m
        2759        7941  l
 s
        2883        1472  m
        2813        1511  l
 s
        2813        1511  m
        2759        1541  l
 s
        2790        8014  m
        2759        7941  l
 s
        2790        8014  m
        2821        8101  l
 s
        2821        8101  m
        2847        8188  l
 s
        2847        8188  m
        2869        8273  l
 s
        2869        8273  m
        2883        8323  l
 s
        3011        1410  m
        3007        1412  l
 s
        3007        1412  m
        2883        1472  l
 s
        2893        8358  m
        2883        8323  l
 s
        2893        8358  m
        2904        8400  l
 s
        3140        1352  m
        3011        1410  l
 s
        3273        1302  m
        3244        1313  l
 s
        3244        1313  m
        3140        1352  l
 s
        3408        1257  m
        3273        1302  l
 s
        3545        1222  m
        3408        1257  l
 s
        3686        1193  m
        3577        1216  l
 s
        3577        1216  m
        3545        1222  l
 s
        3829        1172  m
        3686        1193  l
 s
        3975        1161  m
        3829        1172  l
 s
        4124        1158  m
        3975        1161  l
 s
        4275        1164  m
        4124        1158  l
 s
        4424        1177  m
        4275        1164  l
 s
        4570        1198  m
        4424        1177  l
 s
        4670        1216  m
        4570        1198  l
 s
        4670        1216  m
        4713        1223  l
 s
        4854        1251  m
        4713        1223  l
 s
        4991        1283  m
        4854        1251  l
 s
        5105        1313  m
        4991        1283  l
 s
        5105        1313  m
        5126        1318  l
 s
        5259        1355  m
        5126        1318  l
 s
        5388        1395  m
        5259        1355  l
 s
        5438        1412  m
        5388        1395  l
 s
        5438        1412  m
        5516        1437  l
 s
        5640        1481  m
        5516        1437  l
 s
        5718        1511  m
        5640        1481  l
 s
        5718        1511  m
        5763        1529  l
 s
        5883        1578  m
        5763        1529  l
 s
        5956        1612  m
        5883        1578  l
 s
        5956        1612  m
        6000        1632  l
 s
        6115        1689  m
        6000        1632  l
 s
        6161        1714  m
        6115        1689  l
 s
        6161        1714  m
        6228        1750  l
 s
        6338        1817  m
        6228        1750  l
 s
        6338        1817  m
        6339        1818  l
 s
        6448        1888  m
        6339        1818  l
 s
        6494        1921  m
        6448        1888  l
 s
        6494        1921  m
        6554        1964  l
 s
        6632        2027  m
        6554        1964  l
 s
        6632        2027  m
        6658        2047  l
 s
        6658        7856  m
        6641        7926  l
 s
        6641        7926  m
        6622        8014  l
 s
        6622        8014  m
        6607        8101  l
 s
        6607        8101  m
        6595        8188  l
 s
        6595        8188  m
        6588        8273  l
 s
        6588        8273  m
        6591        8358  l
 s
        6591        8358  m
        6592        8400  l
 s
        6758        2133  m
        6658        2047  l
 s
        6758        2133  m
        6761        2136  l
 s
        6761        7545  m
        6753        7563  l
 s
        6753        7563  m
        6717        7655  l
 s
        6717        7655  m
        6688        7746  l
 s
        6688        7746  m
        6663        7836  l
 s
        6663        7836  m
        6658        7856  l
 s
        6861        2227  m
        6761        2136  l
 s
        6861        7347  m
        6844        7375  l
 s
        6844        7375  m
        6794        7469  l
 s
        6794        7469  m
        6761        7545  l
 s
        6875        2241  m
        6861        2227  l
 s
        6875        2241  m
        6959        2324  l
 s
        6959        7203  m
        6903        7280  l
 s
        6903        7280  m
        6861        7347  l
 s
        6985        2349  m
        6959        2324  l
 s
        6985        2349  m
        7056        2424  l
 s
        7056        7090  m
        6975        7183  l
 s
        6975        7183  m
        6959        7203  l
 s
        7089        2460  m
        7056        2424  l
 s
        7089        2460  m
        7150        2526  l
 s
        7150        6998  m
        7060        7086  l
 s
        7060        7086  m
        7056        7090  l
 s
        7191        2571  m
        7150        2526  l
 s
        7191        2571  m
        7243        2631  l
 s
        7243        6920  m
        7162        6987  l
 s
        7162        6987  m
        7150        6998  l
 s
        7290        2683  m
        7243        2631  l
 s
        7290        2683  m
        7334        2735  l
 s
        7334        6854  m
        7287        6888  l
 s
        7287        6888  m
        7243        6920  l
 s
        7389        2797  m
        7334        2735  l
 s
        7389        2797  m
        7423        2837  l
 s
        7423        6797  m
        7334        6854  l
 s
        7491        2912  m
        7423        2837  l
 s
        7491        2912  m
        7510        2934  l
 s
        7510        6747  m
        7440        6787  l
 s
        7440        6787  m
        7423        6797  l
 s
        7596        3024  m
        7510        2934  l
 s
        7596        6702  m
        7510        6747  l
 s
        7600        3028  m
        7596        3024  l
 s
        7600        3028  m
        7680        3100  l
 s
        7680        6662  m
        7633        6685  l
 s
        7633        6685  m
        7596        6702  l
 s
        7742        3146  m
        7680        3100  l
 s
        7742        3146  m
        7762        3161  l
 s
        7762        6626  m
        7680        6662  l
 s
        7843        3201  m
        7762        3161  l
 s
        7843        6595  m
        7762        6626  l
 s
        7922        3219  m
        7843        3201  l
 s
        7922        6568  m
        7882        6582  l
 s
        7882        6582  m
        7843        6595  l
 s
        7999        3217  m
        7922        3219  l
 s
        7999        6545  m
        7922        6568  l
 s
        8075        3201  m
        7999        3217  l
 s
        8075        6529  m
        7999        6545  l
 s
        8150        3178  m
        8075        3201  l
 s
        8150        6521  m
        8075        6529  l
 s
        8223        3154  m
        8150        3178  l
 s
        8223        6521  m
        8150        6521  l
 s
        8294        3132  m
        8251        3146  l
 s
        8251        3146  m
        8223        3154  l
 s
        8294        6529  m
        8223        6521  l
 s
        8365        3116  m
        8294        3132  l
 s
        8365        6546  m
        8294        6529  l
 s
        8399        3108  m
        8365        3116  l
 s
        8399        6556  m
        8365        6546  l
 s
   1.00000000       0.00000000       0.00000000      col
        7150        7931  m
        7119        8014  l
 s
        7119        8014  m
        7094        8101  l
 s
        7094        8101  m
        7075        8188  l
 s
        7075        8188  m
        7064        8273  l
 s
        7064        8273  m
        7066        8358  l
 s
        7066        8358  m
        7067        8400  l
 s
        7243        7732  m
        7235        7746  l
 s
        7235        7746  m
        7189        7836  l
 s
        7189        7836  m
        7152        7926  l
 s
        7152        7926  m
        7150        7931  l
 s
        7334        7588  m
        7288        7655  l
 s
        7288        7655  m
        7243        7732  l
 s
        7423        7477  m
        7352        7563  l
 s
        7352        7563  m
        7334        7588  l
 s
        7510        7387  m
        7430        7469  l
 s
        7430        7469  m
        7423        7477  l
 s
        7596        7312  m
        7523        7375  l
 s
        7523        7375  m
        7510        7387  l
 s
        7680        7249  m
        7638        7280  l
 s
        7638        7280  m
        7596        7312  l
 s
        7762        7196  m
        7680        7249  l
 s
        7843        7150  m
        7784        7183  l
 s
        7784        7183  m
        7762        7196  l
 s
        7922        7111  m
        7843        7150  l
 s
        7999        7081  m
        7988        7086  l
 s
        7988        7086  m
        7922        7111  l
 s
        8075        7058  m
        7999        7081  l
 s
        8150        7043  m
        8075        7058  l
 s
        8223        7038  m
        8150        7043  l
 s
        8294        7040  m
        8223        7038  l
 s
        8365        7055  m
        8294        7040  l
 s
        8399        7062  m
        8365        7055  l
 s
        8399        8399  m
        8399        8400  l
 s
   1.00000000      0.166666672       0.00000000      col
        7423        8016  m
        7388        8101  l
 s
        7388        8101  m
        7364        8188  l
 s
        7364        8188  m
        7349        8273  l
 s
        7349        8273  m
        7350        8358  l
 s
        7350        8358  m
        7351        8400  l
 s
        7510        7852  m
        7466        7926  l
 s
        7466        7926  m
        7424        8014  l
 s
        7424        8014  m
        7423        8016  l
 s
        7596        7732  m
        7584        7746  l
 s
        7584        7746  m
        7520        7836  l
 s
        7520        7836  m
        7510        7852  l
 s
        7680        7638  m
        7663        7655  l
 s
        7663        7655  m
        7596        7732  l
 s
        7762        7561  m
        7760        7563  l
 s
        7760        7563  m
        7680        7638  l
 s
        7843        7497  m
        7762        7561  l
 s
        7922        7444  m
        7884        7469  l
 s
        7884        7469  m
        7843        7497  l
 s
        7999        7402  m
        7922        7444  l
 s
        8075        7371  m
        8065        7375  l
 s
        8065        7375  m
        7999        7402  l
 s
        8150        7347  m
        8075        7371  l
 s
        8223        7335  m
        8150        7347  l
 s
        8294        7333  m
        8223        7335  l
 s
        8365        7345  m
        8294        7333  l
 s
        8399        7352  m
        8365        7345  l
 s
        8399        8397  m
        8398        8400  l
 s
   1.00000000      0.333333343       0.00000000      col
        7596        8084  m
        7588        8101  l
 s
        7588        8101  m
        7557        8188  l
 s
        7557        8188  m
        7539        8273  l
 s
        7539        8273  m
        7541        8358  l
 s
        7541        8358  m
        7541        8400  l
 s
        7680        7930  m
        7628        8014  l
 s
        7628        8014  m
        7596        8084  l
 s
        7762        7822  m
        7749        7836  l
 s
        7749        7836  m
        7682        7926  l
 s
        7682        7926  m
        7680        7930  l
 s
        7843        7739  m
        7835        7746  l
 s
        7835        7746  m
        7762        7822  l
 s
        7922        7673  m
        7843        7739  l
 s
        7999        7620  m
        7948        7655  l
 s
        7948        7655  m
        7922        7673  l
 s
        8075        7580  m
        7999        7620  l
 s
        8150        7552  m
        8123        7563  l
 s
        8123        7563  m
        8075        7580  l
 s
        8223        7535  m
        8150        7552  l
 s
        8294        7529  m
        8223        7535  l
 s
        8365        7540  m
        8294        7529  l
 s
        8399        7546  m
        8365        7540  l
 s
        8399        8396  m
        8396        8400  l
 s
   1.00000000      0.500000000       0.00000000      col
        7762        8050  m
        7733        8101  l
 s
        7733        8101  m
        7700        8188  l
 s
        7700        8188  m
        7680        8273  l
 s
        7680        8273  m
        7681        8358  l
 s
        7681        8358  m
        7682        8400  l
 s
        7843        7932  m
        7782        8014  l
 s
        7782        8014  m
        7762        8050  l
 s
        7922        7847  m
        7847        7926  l
 s
        7847        7926  m
        7843        7932  l
 s
        7999        7783  m
        7934        7836  l
 s
        7934        7836  m
        7922        7847  l
 s
        8075        7735  m
        8057        7746  l
 s
        8057        7746  m
        7999        7783  l
 s
        8150        7700  m
        8075        7735  l
 s
        8223        7680  m
        8150        7700  l
 s
        8294        7671  m
        8223        7680  l
 s
        8365        7682  m
        8294        7671  l
 s
        8399        7687  m
        8365        7682  l
 s
        8399        8394  m
        8395        8400  l
 s
   1.00000000      0.666666687       0.00000000      col
        7843        8119  m
        7811        8188  l
 s
        7811        8188  m
        7787        8273  l
 s
        7787        8273  m
        7788        8358  l
 s
        7788        8358  m
        7788        8400  l
 s
        7922        7997  m
        7908        8014  l
 s
        7908        8014  m
        7851        8101  l
 s
        7851        8101  m
        7843        8119  l
 s
        7999        7916  m
        7989        7926  l
 s
        7989        7926  m
        7922        7997  l
 s
        8075        7857  m
        7999        7916  l
 s
        8150        7816  m
        8114        7836  l
 s
        8114        7836  m
        8075        7857  l
 s
        8223        7791  m
        8150        7816  l
 s
        8294        7779  m
        8223        7791  l
 s
        8365        7789  m
        8294        7779  l
 s
        8399        7795  m
        8365        7789  l
 s
        8399        8392  m
        8393        8400  l
 s
   1.00000000      0.833333373       0.00000000      col
        7922        8150  m
        7902        8188  l
 s
        7902        8188  m
        7874        8273  l
 s
        7874        8273  m
        7875        8358  l
 s
        7875        8358  m
        7875        8400  l
 s
        7999        8035  m
        7948        8101  l
 s
        7948        8101  m
        7922        8150  l
 s
        8075        7961  m
        8018        8014  l
 s
        8018        8014  m
        7999        8035  l
 s
        8150        7912  m
        8128        7926  l
 s
        8128        7926  m
        8075        7961  l
 s
        8223        7880  m
        8150        7912  l
 s
        8294        7864  m
        8223        7880  l
 s
        8365        7874  m
        8294        7864  l
 s
        8399        7879  m
        8365        7874  l
 s
        8399        8391  m
        8392        8400  l
 s
   1.00000000       1.00000000       0.00000000      col
        7999        8155  m
        7980        8188  l
 s
        7980        8188  m
        7948        8273  l
 s
        7948        8273  m
        7947        8358  l
 s
        7947        8358  m
        7946        8400  l
 s
        8075        8055  m
        8034        8101  l
 s
        8034        8101  m
        7999        8155  l
 s
        8150        7994  m
        8123        8014  l
 s
        8123        8014  m
        8075        8055  l
 s
        8223        7955  m
        8150        7994  l
 s
        8294        7934  m
        8223        7955  l
 s
        8365        7943  m
        8294        7934  l
 s
        8399        7947  m
        8365        7943  l
 s
        8399        8389  m
        8391        8400  l
 s
  0.833333313       1.00000000       0.00000000      col
        8075        8147  m
        8047        8188  l
 s
        8047        8188  m
        8010        8273  l
 s
        8010        8273  m
        8008        8358  l
 s
        8008        8358  m
        8007        8400  l
 s
        8150        8068  m
        8114        8101  l
 s
        8114        8101  m
        8075        8147  l
 s
        8223        8021  m
        8150        8068  l
 s
        8294        7992  m
        8240        8014  l
 s
        8240        8014  m
        8223        8021  l
 s
        8365        7999  m
        8294        7992  l
 s
        8399        8003  m
        8365        7999  l
 s
        8399        8387  m
        8389        8400  l
 s
  0.666666627       1.00000000       0.00000000      col
        8075        8249  m
        8064        8273  l
 s
        8064        8273  m
        8059        8358  l
 s
        8059        8358  m
        8057        8400  l
 s
        8150        8138  m
        8108        8188  l
 s
        8108        8188  m
        8075        8249  l
 s
        8223        8079  m
        8192        8101  l
 s
        8192        8101  m
        8150        8138  l
 s
        8294        8043  m
        8223        8079  l
 s
        8365        8046  m
        8294        8043  l
 s
        8399        8047  m
        8365        8046  l
 s
        8399        8386  m
        8388        8400  l
 s
  0.500000000       1.00000000       0.00000000      col
        8150        8207  m
        8110        8273  l
 s
        8110        8273  m
        8102        8358  l
 s
        8102        8358  m
        8099        8400  l
 s
        8223        8132  m
        8164        8188  l
 s
        8164        8188  m
        8150        8207  l
 s
        8294        8090  m
        8274        8101  l
 s
        8274        8101  m
        8223        8132  l
 s
        8365        8089  m
        8294        8090  l
 s
        8399        8089  m
        8365        8089  l
 s
        8399        8384  m
        8387        8400  l
 s
  0.333333313       1.00000000       0.00000000      col
        8150        8298  m
        8142        8358  l
 s
        8142        8358  m
        8137        8400  l
 s
        8223        8181  m
        8216        8188  l
 s
        8216        8188  m
        8153        8273  l
 s
        8153        8273  m
        8150        8298  l
 s
        8294        8129  m
        8223        8181  l
 s
        8365        8122  m
        8294        8129  l
 s
        8399        8119  m
        8365        8122  l
 s
        8399        8383  m
        8385        8400  l
 s
  0.166666627       1.00000000       0.00000000      col
        8223        8228  m
        8188        8273  l
 s
        8188        8273  m
        8172        8358  l
 s
        8172        8358  m
        8167        8400  l
 s
        8294        8166  m
        8266        8188  l
 s
        8266        8188  m
        8223        8228  l
 s
        8365        8151  m
        8294        8166  l
 s
        8399        8145  m
        8365        8151  l
 s
        8399        8381  m
        8384        8400  l
 s
   0.00000000       1.00000000       0.00000000      col
        8223        8277  m
        8200        8358  l
 s
        8200        8358  m
        8192        8400  l
 s
        8294        8200  m
        8224        8273  l
 s
        8224        8273  m
        8223        8277  l
 s
        8365        8179  m
        8336        8188  l
 s
        8336        8188  m
        8294        8200  l
 s
        8399        8171  m
        8365        8179  l
 s
        8399        8379  m
        8383        8400  l
 s
   0.00000000       1.00000000      0.166666672      col
        8223        8377  m
        8217        8400  l
 s
        8294        8229  m
        8252        8273  l
 s
        8252        8273  m
        8227        8358  l
 s
        8227        8358  m
        8223        8377  l
 s
        8365        8200  m
        8294        8229  l
 s
        8399        8193  m
        8365        8200  l
 s
        8399        8378  m
        8381        8400  l
 s
   0.00000000       1.00000000      0.333333343      col
        8294        8258  m
        8280        8273  l
 s
        8280        8273  m
        8246        8358  l
 s
        8246        8358  m
        8236        8400  l
 s
        8365        8217  m
        8294        8258  l
 s
        8399        8207  m
        8365        8217  l
 s
        8399        8376  m
        8380        8400  l
 s
   0.00000000       1.00000000      0.500000000      col
        8294        8295  m
        8266        8358  l
 s
        8266        8358  m
        8253        8400  l
 s
        8365        8234  m
        8307        8273  l
 s
        8307        8273  m
        8294        8295  l
 s
        8399        8221  m
        8365        8234  l
 s
        8399        8375  m
        8378        8400  l
 s
   0.00000000       1.00000000      0.666666687      col
        8294        8339  m
        8286        8358  l
 s
        8286        8358  m
        8271        8400  l
 s
        8365        8251  m
        8332        8273  l
 s
        8332        8273  m
        8294        8339  l
 s
        8399        8235  m
        8365        8251  l
 s
        8399        8373  m
        8377        8400  l
 s
   0.00000000       1.00000000      0.833333373      col
        8294        8382  m
        8288        8400  l
 s
        8365        8268  m
        8358        8273  l
 s
        8358        8273  m
        8301        8358  l
 s
        8301        8358  m
        8294        8382  l
 s
        8399        8250  m
        8365        8268  l
 s
        8399        8371  m
        8376        8400  l
 s
   0.00000000       1.00000000       1.00000000      col
        8365        8285  m
        8313        8358  l
 s
        8313        8358  m
        8300        8400  l
 s
        8399        8264  m
        8383        8273  l
 s
        8383        8273  m
        8365        8285  l
 s
        8399        8370  m
        8374        8400  l
 s
   0.00000000      0.875000000       1.00000000      col
        8365        8301  m
        8324        8358  l
 s
        8324        8358  m
        8309        8400  l
 s
        8399        8277  m
        8365        8301  l
 s
        8399        8368  m
        8373        8400  l
 s
   0.00000000      0.750000000       1.00000000      col
        8365        8317  m
        8336        8358  l
 s
        8336        8358  m
        8318        8400  l
 s
        8399        8290  m
        8365        8317  l
 s
        8399        8366  m
        8372        8400  l
 s
   0.00000000      0.625000000       1.00000000      col
        8365        8333  m
        8347        8358  l
 s
        8347        8358  m
        8327        8400  l
 s
        8399        8302  m
        8365        8333  l
 s
        8399        8365  m
        8370        8400  l
 s
   0.00000000      0.500000000       1.00000000      col
        8365        8349  m
        8359        8358  l
 s
        8359        8358  m
        8337        8400  l
 s
        8399        8314  m
        8365        8349  l
 s
        8399        8363  m
        8369        8400  l
 s
   0.00000000      0.375000000       1.00000000      col
        8365        8366  m
        8346        8400  l
 s
        8399        8327  m
        8371        8358  l
 s
        8371        8358  m
        8399        8362  l
        8368        8400  l
        8365        8366  l
        8371        8358  l
 s
   0.00000000      0.250000000       1.00000000      col
        8365        8382  m
        8355        8400  l
 s
        8399        8339  m
        8382        8358  l
 s
        8382        8358  m
        8399        8360  l
        8366        8400  l
        8365        8382  l
        8382        8358  l
 s
   0.00000000      0.125000000       1.00000000      col
        8365        8398  m
        8364        8400  l
 s
        8399        8351  m
        8394        8358  l
 s
        8394        8358  m
        8399        8358  l
        8365        8400  l
        8365        8398  l
        8394        8358  l
 s
 0. 0. 0. col
 /Helvetica findfont 250.00 scalefont setfont
        3600       11700  m (ISOBARS        ) show
 /Helvetica findfont 200.00 scalefont setfont
        3600       11400  m (Contour levels:) show
 100 w
   1.00000000       0.00000000       1.00000000      col
        3600       11130  m         4300       11130  l s
        4500       11050  m (-1.93E-01) show
   1.00000000       0.00000000      0.500000000      col
        3600       10880  m         4300       10880  l s
        4500       10800  m (-8.91E-02) show
   1.00000000       0.00000000       0.00000000      col
        3600       10630  m         4300       10630  l s
        4500       10550  m ( 1.44E-02) show
   1.00000000      0.500000000       0.00000000      col
        3600       10380  m         4300       10380  l s
        4500       10300  m ( 1.18E-01) show
   1.00000000       1.00000000       0.00000000      col
        3600       10130  m         4300       10130  l s
        4500       10050  m ( 2.21E-01) show
  0.500000000       1.00000000       0.00000000      col
        3600        9880  m         4300        9880  l s
        4500        9800  m ( 3.25E-01) show
   0.00000000       1.00000000       0.00000000      col
        3600        9630  m         4300        9630  l s
        4500        9550  m ( 4.29E-01) show
   0.00000000       1.00000000      0.500000000      col
        3600        9380  m         4300        9380  l s
        4500        9300  m ( 5.32E-01) show
   0.00000000       1.00000000       1.00000000      col
        3600        9130  m         4300        9130  l s
        4500        9050  m ( 6.36E-01) show
   0.00000000      0.625000000       1.00000000      col
        3600        8880  m         4300        8880  l s
        4500        8800  m ( 7.39E-01) show
   0.00000000      0.250000000       1.00000000      col
        3600        8630  m         4300        8630  l s
        4500        8550  m ( 8.43E-01) show
 p
