 %!PS-Adobe-2.0
 %%Creator: GRIDPL
 %%BoundingBox:    50.0000000       50.0000000       554.000000       553.999939    
 %%EndComments
 /c {currentpoint} def /f {fill} def 
 /gr {grestore} def /gs {gsave} def /l {lineto} def 
 /m {moveto} def /n {newpath} def /p {showpage} def 
 /s {stroke} def /sg {setgray} def 
 /w {setlinewidth} def 
 50 50 translate 0.06 0.06 scale 
 1 setlinecap 1 setlinejoin 
 4 w
    0    0 m  8400    0 l 
 8400 8399 l     0 8399 l 
    0    0 l  s 
 1 w
    0   83 m  8400   83 l  s 
    0  175 m  8400  175 l  s 
    0  274 m  8400  274 l  s 
    0  382 m  8400  382 l  s 
    0  500 m  8400  500 l  s 
    0  628 m  8400  628 l  s 
    0  768 m  8400  768 l  s 
    0  919 m  8400  919 l  s 
    0 1084 m  8400 1084 l  s 
    0 1263 m  8400 1263 l  s 
    0 1458 m  8400 1458 l  s 
    0 1671 m  8400 1671 l  s 
    0 1902 m  8400 1902 l  s 
    0 2153 m  8400 2153 l  s 
    0 2427 m  8400 2427 l  s 
    0 2724 m  8400 2724 l  s 
    0 3048 m  8400 3048 l  s 
    0 3400 m  8400 3400 l  s 
    0 3783 m  8400 3783 l  s 
    0 4199 m  8400 4199 l  s 
    0 4616 m  8400 4616 l  s 
    0 4999 m  8400 4999 l  s 
    0 5351 m  8400 5351 l  s 
    0 5675 m  8400 5675 l  s 
    0 5972 m  8400 5972 l  s 
    0 6246 m  8400 6246 l  s 
    0 6497 m  8400 6497 l  s 
    0 6728 m  8400 6728 l  s 
    0 6941 m  8400 6941 l  s 
    0 7136 m  8400 7136 l  s 
    0 7315 m  8400 7315 l  s 
    0 7480 m  8400 7480 l  s 
    0 7631 m  8400 7631 l  s 
    0 7771 m  8400 7771 l  s 
    0 7899 m  8400 7899 l  s 
    0 8017 m  8400 8017 l  s 
    0 8125 m  8400 8125 l  s 
    0 8224 m  8400 8224 l  s 
    0 8316 m  8400 8316 l  s 
  172    0 m   172 8399 l  s 
  349    0 m   349 8399 l  s 
  529    0 m   529 8399 l  s 
  712    0 m   712 8399 l  s 
  899    0 m   899 8399 l  s 
 1090    0 m  1090 8399 l  s 
 1285    0 m  1285 8399 l  s 
 1483    0 m  1483 8399 l  s 
 1686    0 m  1686 8399 l  s 
 1892    0 m  1892 8399 l  s 
 2103    0 m  2103 8399 l  s 
 2318    0 m  2318 8399 l  s 
 2537    0 m  2537 8399 l  s 
 2761    0 m  2761 8399 l  s 
 2989    0 m  2989 8399 l  s 
 3221    0 m  3221 8399 l  s 
 3459    0 m  3459 8399 l  s 
 3701    0 m  3701 8399 l  s 
 3948    0 m  3948 8399 l  s 
 4199    0 m  4199 8399 l  s 
 4451    0 m  4451 8399 l  s 
 4698    0 m  4698 8399 l  s 
 4940    0 m  4940 8399 l  s 
 5178    0 m  5178 8399 l  s 
 5410    0 m  5410 8399 l  s 
 5638    0 m  5638 8399 l  s 
 5862    0 m  5862 8399 l  s 
 6081    0 m  6081 8399 l  s 
 6296    0 m  6296 8399 l  s 
 6507    0 m  6507 8399 l  s 
 6713    0 m  6713 8399 l  s 
 6916    0 m  6916 8399 l  s 
 7114    0 m  7114 8399 l  s 
 7309    0 m  7309 8399 l  s 
 7500    0 m  7500 8399 l  s 
 7687    0 m  7687 8399 l  s 
 7870    0 m  7870 8399 l  s 
 8050    0 m  8050 8399 l  s 
 8227    0 m  8227 8399 l  s 
 p 
