 %!PS-Adobe-2.0
 %%Creator: GRIDPL
 %%BoundingBox:    50.0000000       50.0000000       554.000000       554.000000    
 %%EndComments
 /c {currentpoint} def /f {fill} def 
 /gr {grestore} def /gs {gsave} def /l {lineto} def 
 /m {moveto} def /n {newpath} def /p {showpage} def 
 /s {stroke} def /sg {setgray} def 
 /w {setlinewidth} def 
 50 50 translate 0.06 0.06 scale 
 1 setlinecap 1 setlinejoin 
 4 w
    0    0 m  8400    0 l 
 8400 8400 l     0 8400 l 
    0    0 l  s 
 1 w
    0  167 m  8400  167 l  s 
    0  368 m  8400  368 l  s 
    0  607 m  8400  607 l  s 
    0  891 m  8400  891 l  s 
    0 1231 m  8400 1231 l  s 
    0 1636 m  8400 1636 l  s 
    0 2119 m  8400 2119 l  s 
    0 2695 m  8400 2695 l  s 
    0 3381 m  8400 3381 l  s 
    0 4199 m  8400 4199 l  s 
    0 5018 m  8400 5018 l  s 
    0 5704 m  8400 5704 l  s 
    0 6280 m  8400 6280 l  s 
    0 6763 m  8400 6763 l  s 
    0 7168 m  8400 7168 l  s 
    0 7508 m  8400 7508 l  s 
    0 7792 m  8400 7792 l  s 
    0 8031 m  8400 8031 l  s 
    0 8232 m  8400 8232 l  s 
  161    0 m   161 8400 l  s 
  355    0 m   355 8400 l  s 
  588    0 m   588 8400 l  s 
  868    0 m   868 8400 l  s 
 1204    0 m  1204 8400 l  s 
 1606    0 m  1606 8400 l  s 
 2089    0 m  2089 8400 l  s 
 2669    0 m  2669 8400 l  s 
 3365    0 m  3365 8400 l  s 
 4199    0 m  4199 8400 l  s 
 5034    0 m  5034 8400 l  s 
 5730    0 m  5730 8400 l  s 
 6310    0 m  6310 8400 l  s 
 6793    0 m  6793 8400 l  s 
 7195    0 m  7195 8400 l  s 
 7531    0 m  7531 8400 l  s 
 7811    0 m  7811 8400 l  s 
 8044    0 m  8044 8400 l  s 
 8238    0 m  8238 8400 l  s 
 p 
