2.0000E-01, 0.0000E+00, 2.2720E-02
9.4473E-02, 1.6828E-02, 5.3646E-02
6.8439E-02, 2.4681E-02, 5.5097E-02
5.7423E-02, 2.9986E-02, 5.0211E-02
5.2335E-02, 3.3177E-02, 4.2376E-02
4.9922E-02, 3.3906E-02, 3.3984E-02
4.8512E-02, 3.2510E-02, 2.9787E-02
4.7005E-02, 2.9514E-02, 3.0374E-02
4.4787E-02, 2.5528E-02, 3.2994E-02
4.1499E-02, 2.1140E-02, 3.5098E-02
3.7310E-02, 1.7062E-02, 3.5234E-02
3.2835E-02, 1.4469E-02, 3.3438E-02
2.8953E-02, 1.6034E-02, 3.1604E-02
2.6308E-02, 1.7540E-02, 2.9513E-02
2.4666E-02, 1.8094E-02, 2.6083E-02
2.3711E-02, 1.7671E-02, 2.1951E-02
2.3962E-02, 1.6568E-02, 1.8555E-02
2.4946E-02, 1.5165E-02, 1.6828E-02
2.5062E-02, 1.4827E-02, 1.5161E-02
2.4353E-02, 1.5982E-02, 1.3588E-02
2.3074E-02, 1.6830E-02, 1.4781E-02
2.1456E-02, 1.7200E-02, 1.6990E-02
1.9747E-02, 1.7115E-02, 1.8155E-02
1.8294E-02, 1.6613E-02, 1.8240E-02
1.7622E-02, 1.5821E-02, 1.7437E-02
1.8451E-02, 1.4924E-02, 1.5926E-02
2.0000E-02, 1.4281E-02, 1.3970E-02
2.1162E-02, 1.3964E-02, 1.1847E-02
2.1885E-02, 1.3876E-02, 1.0716E-02
2.2149E-02, 1.3889E-02, 1.0829E-02
2.2084E-02, 1.3949E-02, 1.1396E-02
2.1711E-02, 1.4068E-02, 1.2625E-02
2.1071E-02, 1.4260E-02, 1.3515E-02
2.0325E-02, 1.4547E-02, 1.3896E-02
1.9561E-02, 1.4829E-02, 1.3739E-02
1.9114E-02, 1.5091E-02, 1.3182E-02
1.9327E-02, 1.5259E-02, 1.2276E-02
1.9752E-02, 1.5347E-02, 1.1182E-02
2.0099E-02, 1.5342E-02, 1.0106E-02
2.0245E-02, 1.5218E-02, 9.6150E-03
2.0246E-02, 1.5025E-02, 1.0029E-02
2.0071E-02, 1.4774E-02, 1.0429E-02
1.9851E-02, 1.4528E-02, 1.0655E-02
1.9632E-02, 1.4298E-02, 1.0718E-02
1.9614E-02, 1.4139E-02, 1.0616E-02
1.9699E-02, 1.4039E-02, 1.0352E-02
1.9816E-02, 1.4004E-02, 9.9579E-03
1.9865E-02, 1.4001E-02, 9.7550E-03
1.9880E-02, 1.4026E-02, 9.6691E-03
1.9785E-02, 1.4057E-02, 9.5326E-03
1.9627E-02, 1.4122E-02, 9.3978E-03
1.9361E-02, 1.4172E-02, 9.3037E-03
1.9068E-02, 1.4215E-02, 9.2502E-03
1.8728E-02, 1.4236E-02, 9.2444E-03
1.8416E-02, 1.4236E-02, 9.1600E-03
1.8148E-02, 1.4194E-02, 8.9523E-03
1.7898E-02, 1.4106E-02, 8.6984E-03
1.7700E-02, 1.3982E-02, 8.3795E-03
1.7489E-02, 1.3835E-02, 8.1108E-03
1.7291E-02, 1.3671E-02, 7.8604E-03
1.7074E-02, 1.3497E-02, 7.6057E-03
1.6825E-02, 1.3319E-02, 7.4038E-03
1.6587E-02, 1.3156E-02, 7.2179E-03
1.6332E-02, 1.3005E-02, 7.0538E-03
1.6074E-02, 1.2869E-02, 6.9231E-03
1.5855E-02, 1.2758E-02, 6.8094E-03
1.5661E-02, 1.2662E-02, 6.7165E-03
1.5481E-02, 1.2574E-02, 6.6417E-03
1.5330E-02, 1.2491E-02, 6.5485E-03
1.5177E-02, 1.2421E-02, 6.4455E-03
1.5021E-02, 1.2347E-02, 6.3468E-03
1.4879E-02, 1.2269E-02, 6.2351E-03
1.4743E-02, 1.2191E-02, 6.1288E-03
1.4593E-02, 1.2109E-02, 6.0199E-03
1.4452E-02, 1.2015E-02, 5.9073E-03
1.4320E-02, 1.1906E-02, 5.7883E-03
1.4196E-02, 1.1798E-02, 5.6552E-03
1.4062E-02, 1.1681E-02, 5.5172E-03
1.3941E-02, 1.1557E-02, 5.3791E-03
1.3825E-02, 1.1429E-02, 5.2435E-03
1.3705E-02, 1.1303E-02, 5.1034E-03
1.3580E-02, 1.1181E-02, 4.9705E-03
1.3464E-02, 1.1058E-02, 4.8549E-03
1.3356E-02, 1.0938E-02, 4.7516E-03
1.3245E-02, 1.0828E-02, 4.6568E-03
1.3133E-02, 1.0725E-02, 4.5696E-03
1.3033E-02, 1.0629E-02, 4.5016E-03
1.2936E-02, 1.0538E-02, 4.4474E-03
1.2845E-02, 1.0456E-02, 4.3992E-03
1.2756E-02, 1.0381E-02, 4.3533E-03
1.2666E-02, 1.0312E-02, 4.3103E-03
1.2584E-02, 1.0247E-02, 4.2732E-03
1.2508E-02, 1.0185E-02, 4.2383E-03
1.2426E-02, 1.0129E-02, 4.2016E-03
1.2345E-02, 1.0075E-02, 4.1608E-03
1.2261E-02, 1.0023E-02, 4.1157E-03
1.2181E-02, 9.9691E-03, 4.0678E-03
1.2096E-02, 9.9177E-03, 4.0187E-03
1.2013E-02, 9.8680E-03, 3.9659E-03
1.1923E-02, 9.8196E-03, 3.9109E-03
1.1829E-02, 9.7706E-03, 3.8566E-03
1.1740E-02, 9.7203E-03, 3.8014E-03
1.1650E-02, 9.6700E-03, 3.7477E-03
1.1557E-02, 9.6212E-03, 3.6972E-03
1.1462E-02, 9.5736E-03, 3.6483E-03
1.1369E-02, 9.5255E-03, 3.6028E-03
1.1275E-02, 9.4780E-03, 3.5598E-03
1.1183E-02, 9.4294E-03, 3.5192E-03
1.1091E-02, 9.3804E-03, 3.4820E-03
1.1003E-02, 9.3340E-03, 3.4498E-03
1.0912E-02, 9.2884E-03, 3.4203E-03
1.0821E-02, 9.2436E-03, 3.3912E-03
1.0733E-02, 9.1986E-03, 3.3631E-03
1.0647E-02, 9.1527E-03, 3.3348E-03
1.0561E-02, 9.1073E-03, 3.3059E-03
1.0472E-02, 9.0599E-03, 3.2763E-03
1.0383E-02, 9.0133E-03, 3.2462E-03
1.0293E-02, 8.9653E-03, 3.2144E-03
1.0202E-02, 8.9150E-03, 3.1802E-03
1.0111E-02, 8.8631E-03, 3.1443E-03
1.0018E-02, 8.8083E-03, 3.1071E-03
9.9252E-03, 8.7503E-03, 3.0688E-03
9.8294E-03, 8.6906E-03, 3.0287E-03
9.7310E-03, 8.6279E-03, 2.9883E-03
9.6350E-03, 8.5641E-03, 2.9468E-03
9.5388E-03, 8.4988E-03, 2.9046E-03
9.4422E-03, 8.4317E-03, 2.8624E-03
9.3446E-03, 8.3631E-03, 2.8212E-03
9.2468E-03, 8.2931E-03, 2.7803E-03
9.1500E-03, 8.2210E-03, 2.7392E-03
9.0518E-03, 8.1483E-03, 2.6990E-03
8.9553E-03, 8.0753E-03, 2.6602E-03
8.8605E-03, 8.0019E-03, 2.6223E-03
8.7665E-03, 7.9288E-03, 2.5856E-03
8.6723E-03, 7.8552E-03, 2.5492E-03
8.5777E-03, 7.7809E-03, 2.5133E-03
8.4820E-03, 7.7063E-03, 2.4777E-03
8.3899E-03, 7.6318E-03, 2.4424E-03
8.2988E-03, 7.5564E-03, 2.4068E-03
8.2075E-03, 7.4816E-03, 2.3724E-03
8.1159E-03, 7.4066E-03, 2.3385E-03
8.0258E-03, 7.3312E-03, 2.3045E-03
7.9361E-03, 7.2556E-03, 2.2703E-03
7.8474E-03, 7.1795E-03, 2.2361E-03
7.7581E-03, 7.1029E-03, 2.2020E-03
7.6699E-03, 7.0260E-03, 2.1680E-03
7.5844E-03, 6.9494E-03, 2.1345E-03
7.4998E-03, 6.8732E-03, 2.1015E-03
7.4158E-03, 6.7973E-03, 2.0693E-03
7.3323E-03, 6.7223E-03, 2.0376E-03
7.2501E-03, 6.6477E-03, 2.0067E-03
7.1687E-03, 6.5739E-03, 1.9764E-03
7.0882E-03, 6.5005E-03, 1.9468E-03
7.0093E-03, 6.4279E-03, 1.9183E-03
6.9322E-03, 6.3558E-03, 1.8910E-03
6.8554E-03, 6.2844E-03, 1.8649E-03
6.7805E-03, 6.2145E-03, 1.8395E-03
6.7068E-03, 6.1456E-03, 1.8147E-03
6.6336E-03, 6.0775E-03, 1.7909E-03
6.5612E-03, 6.0099E-03, 1.7677E-03
6.4890E-03, 5.9429E-03, 1.7452E-03
6.4174E-03, 5.8770E-03, 1.7234E-03
6.3473E-03, 5.8122E-03, 1.7023E-03
6.2777E-03, 5.7481E-03, 1.6820E-03
6.2090E-03, 5.6848E-03, 1.6622E-03
6.1414E-03, 5.6226E-03, 1.6430E-03
6.0740E-03, 5.5614E-03, 1.6240E-03
6.0073E-03, 5.5010E-03, 1.6053E-03
5.9408E-03, 5.4413E-03, 1.5871E-03
5.8754E-03, 5.3823E-03, 1.5691E-03
5.8109E-03, 5.3243E-03, 1.5515E-03
5.7473E-03, 5.2668E-03, 1.5341E-03
5.6841E-03, 5.2100E-03, 1.5171E-03
5.6214E-03, 5.1540E-03, 1.5005E-03
5.5591E-03, 5.0985E-03, 1.4843E-03
5.4972E-03, 5.0436E-03, 1.4685E-03
5.4360E-03, 4.9896E-03, 1.4530E-03
5.3754E-03, 4.9360E-03, 1.4378E-03
5.3158E-03, 4.8829E-03, 1.4228E-03
5.2570E-03, 4.8305E-03, 1.4080E-03
5.1986E-03, 4.7789E-03, 1.3934E-03
5.1405E-03, 4.7277E-03, 1.3791E-03
5.0830E-03, 4.6771E-03, 1.3648E-03
5.0258E-03, 4.6268E-03, 1.3508E-03
4.9692E-03, 4.5770E-03, 1.3370E-03
4.9128E-03, 4.5275E-03, 1.3232E-03
4.8567E-03, 4.4784E-03, 1.3095E-03
4.8009E-03, 4.4296E-03, 1.2958E-03
4.7457E-03, 4.3814E-03, 1.2822E-03
4.6908E-03, 4.3334E-03, 1.2686E-03
4.6363E-03, 4.2859E-03, 1.2550E-03
4.5820E-03, 4.2387E-03, 1.2414E-03
4.5280E-03, 4.1920E-03, 1.2278E-03
4.4743E-03, 4.1455E-03, 1.2141E-03
4.4209E-03, 4.0993E-03, 1.2006E-03
4.3679E-03, 4.0535E-03, 1.1870E-03
4.3151E-03, 4.0081E-03, 1.1735E-03
4.2626E-03, 3.9632E-03, 1.1599E-03
4.2103E-03, 3.9185E-03, 1.1464E-03
4.1584E-03, 3.8743E-03, 1.1329E-03
4.1068E-03, 3.8303E-03, 1.1193E-03
4.0555E-03, 3.7868E-03, 1.1059E-03
4.0046E-03, 3.7436E-03, 1.0925E-03
3.9540E-03, 3.7008E-03, 1.0791E-03
3.9037E-03, 3.6584E-03, 1.0658E-03
3.8536E-03, 3.6163E-03, 1.0526E-03
3.8039E-03, 3.5745E-03, 1.0394E-03
3.7544E-03, 3.5330E-03, 1.0262E-03
3.7050E-03, 3.4918E-03, 1.0130E-03
3.6560E-03, 3.4509E-03, 9.9988E-04
3.6074E-03, 3.4102E-03, 9.8676E-04
3.5590E-03, 3.3697E-03, 9.7364E-04
3.5108E-03, 3.3296E-03, 9.6055E-04
3.4627E-03, 3.2898E-03, 9.4751E-04
3.4150E-03, 3.2502E-03, 9.3454E-04
3.3676E-03, 3.2109E-03, 9.2162E-04
3.3204E-03, 3.1718E-03, 9.0879E-04
3.2736E-03, 3.1329E-03, 8.9603E-04
3.2272E-03, 3.0943E-03, 8.8336E-04
3.1812E-03, 3.0559E-03, 8.7077E-04
3.1359E-03, 3.0177E-03, 8.5837E-04
3.0909E-03, 2.9798E-03, 8.4597E-04
3.0463E-03, 2.9421E-03, 8.3373E-04
3.0023E-03, 2.9046E-03, 8.2161E-04
2.9586E-03, 2.8673E-03, 8.0960E-04
2.9153E-03, 2.8303E-03, 7.9778E-04
2.8725E-03, 2.7936E-03, 7.8608E-04
2.8301E-03, 2.7572E-03, 7.7468E-04
2.7882E-03, 2.7210E-03, 7.6345E-04
2.7468E-03, 2.6852E-03, 7.5239E-04
2.7058E-03, 2.6495E-03, 7.4155E-04
2.6652E-03, 2.6142E-03, 7.3093E-04
2.6250E-03, 2.5791E-03, 7.2051E-04
2.5854E-03, 2.5443E-03, 7.1029E-04
2.5462E-03, 2.5098E-03, 7.0034E-04
2.5076E-03, 2.4756E-03, 6.9057E-04
2.4695E-03, 2.4417E-03, 6.8095E-04
2.4319E-03, 2.4081E-03, 6.7157E-04
2.3948E-03, 2.3748E-03, 6.6235E-04
2.3582E-03, 2.3418E-03, 6.5326E-04
2.3221E-03, 2.3092E-03, 6.4438E-04
2.2865E-03, 2.2770E-03, 6.3566E-04
2.2513E-03, 2.2450E-03, 6.2711E-04
2.2166E-03, 2.2134E-03, 6.1861E-04
2.1823E-03, 2.1823E-03, 6.1033E-04
2.1486E-03, 2.1514E-03, 6.0213E-04
2.1153E-03, 2.1209E-03, 5.9411E-04
2.0825E-03, 2.0908E-03, 5.8621E-04
2.0502E-03, 2.0611E-03, 5.7840E-04
2.0183E-03, 2.0317E-03, 5.7069E-04
1.9869E-03, 2.0027E-03, 5.6308E-04
1.9560E-03, 1.9741E-03, 5.5563E-04
1.9255E-03, 1.9457E-03, 5.4826E-04
1.8955E-03, 1.9178E-03, 5.4097E-04
1.8659E-03, 1.8902E-03, 5.3378E-04
1.8368E-03, 1.8630E-03, 5.2663E-04
1.8082E-03, 1.8361E-03, 5.1960E-04
1.7799E-03, 1.8096E-03, 5.1271E-04
1.7522E-03, 1.7833E-03, 5.0584E-04
1.7249E-03, 1.7574E-03, 4.9909E-04
1.6980E-03, 1.7319E-03, 4.9237E-04
1.6715E-03, 1.7067E-03, 4.8577E-04
1.6455E-03, 1.6819E-03, 4.7923E-04
1.6199E-03, 1.6574E-03, 4.7274E-04
1.5948E-03, 1.6332E-03, 4.6637E-04
1.5700E-03, 1.6093E-03, 4.6002E-04
1.5457E-03, 1.5858E-03, 4.5380E-04
1.5218E-03, 1.5626E-03, 4.4763E-04
1.4982E-03, 1.5397E-03, 4.4153E-04
1.4750E-03, 1.5171E-03, 4.3546E-04
1.4522E-03, 1.4949E-03, 4.2950E-04
1.4298E-03, 1.4729E-03, 4.2355E-04
1.4079E-03, 1.4513E-03, 4.1771E-04
1.3862E-03, 1.4300E-03, 4.1194E-04
1.3649E-03, 1.4090E-03, 4.0624E-04
1.3439E-03, 1.3883E-03, 4.0054E-04
1.3233E-03, 1.3679E-03, 3.9500E-04
1.3030E-03, 1.3478E-03, 3.8948E-04
1.2830E-03, 1.3280E-03, 3.8404E-04
1.2634E-03, 1.3085E-03, 3.7863E-04
1.2441E-03, 1.2892E-03, 3.7330E-04
1.2251E-03, 1.2703E-03, 3.6804E-04
1.2065E-03, 1.2516E-03, 3.6288E-04
1.1881E-03, 1.2332E-03, 3.5771E-04
1.1700E-03, 1.2152E-03, 3.5270E-04
1.1522E-03, 1.1973E-03, 3.4768E-04
1.1347E-03, 1.1798E-03, 3.4280E-04
1.1174E-03, 1.1625E-03, 3.3789E-04
1.1005E-03, 1.1455E-03, 3.3314E-04
1.0838E-03, 1.1287E-03, 3.2842E-04
1.0673E-03, 1.1122E-03, 3.2374E-04
1.0511E-03, 1.0960E-03, 3.1915E-04
1.0352E-03, 1.0799E-03, 3.1464E-04
1.0194E-03, 1.0642E-03, 3.1016E-04
1.0040E-03, 1.0487E-03, 3.0578E-04
9.8872E-04, 1.0334E-03, 3.0145E-04
9.7370E-04, 1.0183E-03, 2.9715E-04
9.5890E-04, 1.0035E-03, 2.9295E-04
9.4433E-04, 9.8892E-04, 2.8883E-04
9.2997E-04, 9.7453E-04, 2.8473E-04
9.1583E-04, 9.6040E-04, 2.8070E-04
9.0186E-04, 9.4643E-04, 2.7675E-04
8.8813E-04, 9.3271E-04, 2.7289E-04
8.7457E-04, 9.1916E-04, 2.6901E-04
8.6124E-04, 9.0584E-04, 2.6527E-04
8.4810E-04, 8.9271E-04, 2.6154E-04
8.3514E-04, 8.7976E-04, 2.5790E-04
8.2238E-04, 8.6698E-04, 2.5429E-04
8.0978E-04, 8.5442E-04, 2.5077E-04
7.9739E-04, 8.4202E-04, 2.4727E-04
7.8515E-04, 8.2984E-04, 2.4387E-04
7.7308E-04, 8.1783E-04, 2.4048E-04
7.6118E-04, 8.0598E-04, 2.3713E-04
7.4946E-04, 7.9426E-04, 2.3387E-04
7.3791E-04, 7.8279E-04, 2.3064E-04
7.2651E-04, 7.7143E-04, 2.2750E-04
7.1531E-04, 7.6022E-04, 2.2434E-04
7.0427E-04, 7.4917E-04, 2.2124E-04
6.9342E-04, 7.3829E-04, 2.1823E-04
6.8266E-04, 7.2757E-04, 2.1527E-04
6.7210E-04, 7.1700E-04, 2.1236E-04
6.6169E-04, 7.0654E-04, 2.0942E-04
6.5141E-04, 6.9626E-04, 2.0659E-04
6.4133E-04, 6.8610E-04, 2.0378E-04
6.3135E-04, 6.7610E-04, 2.0099E-04
6.2158E-04, 6.6622E-04, 1.9826E-04
6.1191E-04, 6.5649E-04, 1.9558E-04
6.0244E-04, 6.4688E-04, 1.9293E-04
5.9308E-04, 6.3744E-04, 1.9033E-04
5.8385E-04, 6.2808E-04, 1.8778E-04
5.7481E-04, 6.1890E-04, 1.8522E-04
5.6586E-04, 6.0981E-04, 1.8272E-04
5.5709E-04, 6.0088E-04, 1.8029E-04
5.4844E-04, 5.9204E-04, 1.7782E-04
5.3990E-04, 5.8336E-04, 1.7544E-04
5.3155E-04, 5.7479E-04, 1.7310E-04
5.2333E-04, 5.6634E-04, 1.7077E-04
5.1522E-04, 5.5800E-04, 1.6846E-04
5.0728E-04, 5.4978E-04, 1.6620E-04
4.9942E-04, 5.4170E-04, 1.6397E-04
4.9174E-04, 5.3376E-04, 1.6177E-04
4.8414E-04, 5.2590E-04, 1.5960E-04
4.7670E-04, 5.1814E-04, 1.5748E-04
4.6940E-04, 5.1048E-04, 1.5536E-04
4.6220E-04, 5.0302E-04, 1.5331E-04
4.5513E-04, 4.9560E-04, 1.5124E-04
4.4821E-04, 4.8833E-04, 1.4923E-04
4.4139E-04, 4.8111E-04, 1.4724E-04
4.3470E-04, 4.7406E-04, 1.4528E-04
4.2813E-04, 4.6711E-04, 1.4333E-04
4.2166E-04, 4.6023E-04, 1.4144E-04
4.1534E-04, 4.5350E-04, 1.3956E-04
4.0908E-04, 4.4683E-04, 1.3766E-04
4.0298E-04, 4.4031E-04, 1.3589E-04
3.9699E-04, 4.3386E-04, 1.3408E-04
3.9108E-04, 4.2754E-04, 1.3230E-04
3.8529E-04, 4.2130E-04, 1.3058E-04
3.7959E-04, 4.1516E-04, 1.2884E-04
3.7401E-04, 4.0913E-04, 1.2718E-04
3.6848E-04, 4.0320E-04, 1.2549E-04
3.6311E-04, 3.9736E-04, 1.2386E-04
3.5782E-04, 3.9163E-04, 1.2225E-04
3.5262E-04, 3.8600E-04, 1.2067E-04
3.4748E-04, 3.8042E-04, 1.1908E-04
3.4250E-04, 3.7496E-04, 1.1754E-04
3.3758E-04, 3.6958E-04, 1.1606E-04
3.3271E-04, 3.6428E-04, 1.1454E-04
3.2797E-04, 3.5910E-04, 1.1309E-04
3.2329E-04, 3.5398E-04, 1.1164E-04
3.1867E-04, 3.4898E-04, 1.1022E-04
3.1416E-04, 3.4404E-04, 1.0882E-04
3.0974E-04, 3.3919E-04, 1.0746E-04
3.0542E-04, 3.3443E-04, 1.0609E-04
3.0111E-04, 3.2974E-04, 1.0479E-04
2.9689E-04, 3.2515E-04, 1.0345E-04
2.9274E-04, 3.2061E-04, 1.0219E-04
2.8870E-04, 3.1617E-04, 1.0091E-04
2.8470E-04, 3.1181E-04, 9.9685E-05
2.8076E-04, 3.0749E-04, 9.8450E-05
2.7687E-04, 3.0328E-04, 9.7284E-05
2.7305E-04, 2.9914E-04, 9.6095E-05
2.6926E-04, 2.9504E-04, 9.4911E-05
2.6560E-04, 2.9103E-04, 9.3778E-05
2.6195E-04, 2.8710E-04, 9.2671E-05
2.5833E-04, 2.8320E-04, 9.1573E-05
2.5486E-04, 2.7940E-04, 9.0509E-05
2.5136E-04, 2.7565E-04, 8.9453E-05
2.4796E-04, 2.7196E-04, 8.8405E-05
2.4457E-04, 2.6831E-04, 8.7380E-05
2.4130E-04, 2.6473E-04, 8.6377E-05
2.3801E-04, 2.6121E-04, 8.5378E-05
2.3483E-04, 2.5773E-04, 8.4410E-05
2.3167E-04, 2.5435E-04, 8.3455E-05
2.2854E-04, 2.5101E-04, 8.2528E-05
2.2544E-04, 2.4774E-04, 8.1625E-05
2.2245E-04, 2.4449E-04, 8.0708E-05
2.1945E-04, 2.4132E-04, 7.9821E-05
2.1656E-04, 2.3813E-04, 7.8948E-05
2.1364E-04, 2.3508E-04, 7.8106E-05
2.1078E-04, 2.3205E-04, 7.7234E-05
2.0798E-04, 2.2903E-04, 7.6449E-05
2.0529E-04, 2.2608E-04, 7.5629E-05
2.0253E-04, 2.2318E-04, 7.4820E-05
1.9990E-04, 2.2032E-04, 7.4042E-05
1.9725E-04, 2.1751E-04, 7.3254E-05
1.9469E-04, 2.1473E-04, 7.2481E-05
1.9215E-04, 2.1202E-04, 7.1716E-05
1.8967E-04, 2.0933E-04, 7.0985E-05
1.8721E-04, 2.0668E-04, 7.0262E-05
1.8478E-04, 2.0407E-04, 6.9545E-05
1.8243E-04, 2.0148E-04, 6.8843E-05
1.8014E-04, 1.9895E-04, 6.8112E-05
1.7785E-04, 1.9646E-04, 6.7444E-05
1.7563E-04, 1.9403E-04, 6.6763E-05
1.7346E-04, 1.9159E-04, 6.6054E-05
1.7132E-04, 1.8920E-04, 6.5432E-05
1.6920E-04, 1.8684E-04, 6.4726E-05
1.6715E-04, 1.8453E-04, 6.4125E-05
1.6511E-04, 1.8222E-04, 6.3462E-05
1.6312E-04, 1.7998E-04, 6.2820E-05
1.6117E-04, 1.7777E-04, 6.2238E-05
1.5920E-04, 1.7560E-04, 6.1591E-05
1.5732E-04, 1.7346E-04, 6.0969E-05
1.5548E-04, 1.7133E-04, 6.0377E-05
1.5369E-04, 1.6926E-04, 5.9795E-05
1.5189E-04, 1.6721E-04, 5.9199E-05
1.5014E-04, 1.6518E-04, 5.8634E-05
1.4840E-04, 1.6313E-04, 5.8044E-05
1.4672E-04, 1.6118E-04, 5.7493E-05
1.4510E-04, 1.5924E-04, 5.6934E-05
1.4343E-04, 1.5733E-04, 5.6365E-05
1.4185E-04, 1.5545E-04, 5.5810E-05
1.4026E-04, 1.5358E-04, 5.5288E-05
1.3869E-04, 1.5177E-04, 5.4749E-05
1.3716E-04, 1.4996E-04, 5.4226E-05
1.3568E-04, 1.4819E-04, 5.3703E-05
1.3420E-04, 1.4645E-04, 5.3196E-05
1.3276E-04, 1.4475E-04, 5.2688E-05
1.3134E-04, 1.4307E-04, 5.2199E-05
1.2994E-04, 1.4140E-04, 5.1721E-05
1.2856E-04, 1.3977E-04, 5.1203E-05
1.2720E-04, 1.3816E-04, 5.0723E-05
1.2588E-04, 1.3656E-04, 5.0268E-05
1.2455E-04, 1.3501E-04, 4.9782E-05
1.2326E-04, 1.3351E-04, 4.9357E-05
1.2198E-04, 1.3196E-04, 4.8911E-05
1.2074E-04, 1.3050E-04, 4.8423E-05
1.1952E-04, 1.2901E-04, 4.8014E-05
1.1831E-04, 1.2758E-04, 4.7548E-05
1.1711E-04, 1.2615E-04, 4.7113E-05
