1.959E-01, 0.000E+00, 2.706E-02
8.541E-02, 1.585E-02, 4.783E-02
5.810E-02, 1.792E-02, 3.441E-02
4.229E-02, 1.652E-02, 2.827E-02
3.166E-02, 1.569E-02, 2.381E-02
2.508E-02, 1.556E-02, 2.035E-02
2.126E-02, 1.562E-02, 2.027E-02
1.895E-02, 1.558E-02, 2.135E-02
1.752E-02, 1.544E-02, 2.229E-02
1.666E-02, 1.528E-02, 2.345E-02
1.607E-02, 1.519E-02, 2.461E-02
1.564E-02, 1.513E-02, 2.572E-02
1.542E-02, 1.512E-02, 2.697E-02
1.525E-02, 1.500E-02, 2.792E-02
1.539E-02, 1.492E-02, 2.908E-02
1.567E-02, 1.509E-02, 3.047E-02
1.639E-02, 1.524E-02, 3.177E-02
1.708E-02, 1.551E-02, 3.312E-02
1.770E-02, 1.553E-02, 3.422E-02
1.803E-02, 1.550E-02, 3.467E-02
1.831E-02, 1.532E-02, 3.536E-02
1.824E-02, 1.495E-02, 3.507E-02
1.808E-02, 1.471E-02, 3.484E-02
1.783E-02, 1.423E-02, 3.442E-02
1.733E-02, 1.381E-02, 3.386E-02
1.690E-02, 1.342E-02, 3.271E-02
1.643E-02, 1.297E-02, 3.137E-02
1.591E-02, 1.261E-02, 3.010E-02
1.532E-02, 1.227E-02, 2.870E-02
1.488E-02, 1.186E-02, 2.732E-02
1.438E-02, 1.145E-02, 2.584E-02
1.379E-02, 1.113E-02, 2.465E-02
1.327E-02, 1.077E-02, 2.340E-02
1.283E-02, 1.040E-02, 2.219E-02
1.240E-02, 1.002E-02, 2.105E-02
1.198E-02, 9.669E-03, 2.002E-02
1.158E-02, 9.341E-03, 1.917E-02
1.120E-02, 9.002E-03, 1.833E-02
1.084E-02, 8.681E-03, 1.762E-02
1.053E-02, 8.337E-03, 1.692E-02
1.022E-02, 8.045E-03, 1.629E-02
9.925E-03, 7.799E-03, 1.567E-02
9.647E-03, 7.558E-03, 1.512E-02
9.365E-03, 7.323E-03, 1.468E-02
9.071E-03, 7.098E-03, 1.427E-02
8.816E-03, 6.864E-03, 1.386E-02
8.540E-03, 6.652E-03, 1.336E-02
8.265E-03, 6.478E-03, 1.283E-02
8.015E-03, 6.309E-03, 1.234E-02
7.783E-03, 6.126E-03, 1.193E-02
7.545E-03, 5.948E-03, 1.150E-02
7.304E-03, 5.770E-03, 1.111E-02
7.061E-03, 5.594E-03, 1.071E-02
6.824E-03, 5.416E-03, 1.030E-02
6.587E-03, 5.249E-03, 9.863E-03
6.352E-03, 5.080E-03, 9.423E-03
6.129E-03, 4.912E-03, 9.023E-03
5.909E-03, 4.741E-03, 8.641E-03
5.694E-03, 4.571E-03, 8.278E-03
5.487E-03, 4.408E-03, 7.932E-03
5.286E-03, 4.245E-03, 7.603E-03
5.087E-03, 4.081E-03, 7.286E-03
4.890E-03, 3.919E-03, 6.967E-03
4.702E-03, 3.761E-03, 6.663E-03
4.524E-03, 3.611E-03, 6.376E-03
4.351E-03, 3.466E-03, 6.109E-03
4.183E-03, 3.328E-03, 5.848E-03
4.022E-03, 3.194E-03, 5.597E-03
3.866E-03, 3.064E-03, 5.359E-03
3.715E-03, 2.940E-03, 5.123E-03
3.576E-03, 2.821E-03, 4.913E-03
3.437E-03, 2.709E-03, 4.692E-03
3.305E-03, 2.602E-03, 4.486E-03
3.178E-03, 2.502E-03, 4.293E-03
3.056E-03, 2.405E-03, 4.112E-03
2.939E-03, 2.313E-03, 3.939E-03
2.826E-03, 2.225E-03, 3.771E-03
2.717E-03, 2.140E-03, 3.610E-03
2.614E-03, 2.060E-03, 3.456E-03
2.514E-03, 1.982E-03, 3.303E-03
2.421E-03, 1.907E-03, 3.168E-03
2.328E-03, 1.836E-03, 3.032E-03
2.241E-03, 1.767E-03, 2.906E-03
2.158E-03, 1.701E-03, 2.787E-03
2.077E-03, 1.637E-03, 2.674E-03
2.000E-03, 1.575E-03, 2.567E-03
1.926E-03, 1.516E-03, 2.464E-03
1.854E-03, 1.459E-03, 2.366E-03
1.785E-03, 1.404E-03, 2.271E-03
1.719E-03, 1.351E-03, 2.181E-03
1.655E-03, 1.300E-03, 2.095E-03
1.593E-03, 1.251E-03, 2.012E-03
1.533E-03, 1.205E-03, 1.933E-03
1.475E-03, 1.160E-03, 1.857E-03
1.420E-03, 1.116E-03, 1.785E-03
1.366E-03, 1.075E-03, 1.716E-03
1.314E-03, 1.035E-03, 1.649E-03
1.263E-03, 9.969E-04, 1.586E-03
1.214E-03, 9.600E-04, 1.525E-03
1.167E-03, 9.244E-04, 1.466E-03
1.122E-03, 8.902E-04, 1.410E-03
1.078E-03, 8.573E-04, 1.355E-03
1.036E-03, 8.254E-04, 1.302E-03
9.954E-04, 7.948E-04, 1.252E-03
9.563E-04, 7.652E-04, 1.203E-03
9.188E-04, 7.366E-04, 1.156E-03
8.828E-04, 7.090E-04, 1.110E-03
8.482E-04, 6.824E-04, 1.066E-03
8.150E-04, 6.568E-04, 1.024E-03
7.833E-04, 6.322E-04, 9.834E-04
7.529E-04, 6.084E-04, 9.442E-04
7.238E-04, 5.855E-04, 9.067E-04
6.960E-04, 5.635E-04, 8.705E-04
6.694E-04, 5.423E-04, 8.356E-04
6.439E-04, 5.220E-04, 8.023E-04
6.197E-04, 5.025E-04, 7.702E-04
5.964E-04, 4.838E-04, 7.394E-04
5.742E-04, 4.659E-04, 7.098E-04
5.529E-04, 4.486E-04, 6.815E-04
5.326E-04, 4.322E-04, 6.542E-04
5.131E-04, 4.164E-04, 6.282E-04
4.945E-04, 4.012E-04, 6.032E-04
4.765E-04, 3.867E-04, 5.792E-04
4.593E-04, 3.728E-04, 5.563E-04
4.428E-04, 3.595E-04, 5.343E-04
4.269E-04, 3.467E-04, 5.132E-04
4.117E-04, 3.345E-04, 4.931E-04
3.971E-04, 3.228E-04, 4.738E-04
3.830E-04, 3.116E-04, 4.554E-04
3.695E-04, 3.009E-04, 4.376E-04
3.566E-04, 2.906E-04, 4.206E-04
3.441E-04, 2.807E-04, 4.043E-04
3.320E-04, 2.712E-04, 3.887E-04
3.205E-04, 2.621E-04, 3.737E-04
3.094E-04, 2.533E-04, 3.594E-04
2.987E-04, 2.449E-04, 3.456E-04
2.886E-04, 2.368E-04, 3.324E-04
2.787E-04, 2.290E-04, 3.197E-04
2.693E-04, 2.216E-04, 3.076E-04
2.603E-04, 2.144E-04, 2.959E-04
2.517E-04, 2.075E-04, 2.848E-04
2.434E-04, 2.008E-04, 2.742E-04
2.354E-04, 1.944E-04, 2.638E-04
2.278E-04, 1.883E-04, 2.541E-04
2.205E-04, 1.824E-04, 2.448E-04
2.136E-04, 1.768E-04, 2.358E-04
2.070E-04, 1.714E-04, 2.273E-04
2.009E-04, 1.662E-04, 2.191E-04
1.950E-04, 1.613E-04, 2.113E-04
1.894E-04, 1.565E-04, 2.039E-04
1.840E-04, 1.520E-04, 1.969E-04
1.789E-04, 1.476E-04, 1.901E-04
1.739E-04, 1.435E-04, 1.838E-04
1.692E-04, 1.395E-04, 1.777E-04
1.647E-04, 1.356E-04, 1.720E-04
1.604E-04, 1.320E-04, 1.667E-04
1.562E-04, 1.285E-04, 1.615E-04
1.522E-04, 1.251E-04, 1.566E-04
1.483E-04, 1.219E-04, 1.520E-04
1.446E-04, 1.188E-04, 1.475E-04
1.410E-04, 1.158E-04, 1.434E-04
1.376E-04, 1.129E-04, 1.394E-04
1.342E-04, 1.101E-04, 1.355E-04
1.310E-04, 1.074E-04, 1.319E-04
1.279E-04, 1.049E-04, 1.283E-04
1.248E-04, 1.024E-04, 1.248E-04
1.219E-04, 9.999E-05, 1.216E-04
1.191E-04, 9.769E-05, 1.184E-04
1.164E-04, 9.545E-05, 1.153E-04
1.137E-04, 9.326E-05, 1.123E-04
1.112E-04, 9.113E-05, 1.095E-04
1.087E-04, 8.909E-05, 1.067E-04
1.063E-04, 8.706E-05, 1.041E-04
1.040E-04, 8.514E-05, 1.014E-04
1.018E-04, 8.325E-05, 9.894E-05
9.954E-05, 8.145E-05, 9.651E-05
