7.838484521062267013e+05,7.742887952083573909e+05,7.742887952083573909e+05,7.742887952083573909e+05,7.742887952083573909e+05,7.838484521062267013e+05
7.832840763583960943e+05,7.742887952083573909e+05,7.742887952083573909e+05,7.742887952083573909e+05,7.742887952083573909e+05,7.838571348100395408e+05
7.808963328098820057e+05,7.738720254253438907e+05,7.742801125045445515e+05,7.742974779121702304e+05,7.742887952083573909e+05,7.838050385871628532e+05
7.789514071558194701e+05,7.728040528563722037e+05,7.741846027626040159e+05,7.742714298007318284e+05,7.742801125045445515e+05,7.838050385871628532e+05
7.767199522759353276e+05,7.713714067272638204e+05,7.738633427215312840e+05,7.742019681702295784e+05,7.742453816892935429e+05,7.837963558833501302e+05
7.740109486863483908e+05,7.697564238180868560e+05,7.733250150851388462e+05,7.741064584282890428e+05,7.742193335778550245e+05,7.837355769566606032e+05
7.715190126920809271e+05,7.671950261933171423e+05,7.727693220411210787e+05,7.738893908329695696e+05,7.741238238359146053e+05,7.837355769566606032e+05
7.690878556245029904e+05,7.648854269791180268e+05,7.718923689560303465e+05,7.736636405338372570e+05,7.740543622054123553e+05,7.836661153261584695e+05
7.662312460700985976e+05,7.621503752780926879e+05,7.708678099061225075e+05,7.732816015660749981e+05,7.739067562405951321e+05,7.836140191032817820e+05
7.640866182283422677e+05,7.596323911723868223e+05,7.700516357477213023e+05,7.728214182639977662e+05,7.737591502757777926e+05,7.835706055842179339e+05
7.619940866094627418e+05,7.569233875827998854e+05,7.689315669558728114e+05,7.722136289971031947e+05,7.735507653842711588e+05,7.833969515079623088e+05
7.598928722867702600e+05,7.546658845914774574e+05,7.676031132725176867e+05,7.716926667683364358e+05,7.732034572317600250e+05,7.833188071736473357e+05
7.580087255593972513e+05,7.523823334887166275e+05,7.662225633662858745e+05,7.711456564281315077e+05,7.727432739296827931e+05,7.831625185050171567e+05
7.558727804214536445e+05,7.501161477935812436e+05,7.644078782694152324e+05,7.703468476773557486e+05,7.722136289971031947e+05,7.828586238715698710e+05
7.538497104330762522e+05,7.482146356585827889e+05,7.623848082810377236e+05,7.695046254075162578e+05,7.718055419179027667e+05,7.825460465343099786e+05
7.520089772247670917e+05,7.463131235235842178e+05,7.603877864040985005e+05,7.686450377300512046e+05,7.713279932081998559e+05,7.821032286398581928e+05
7.500119553478279850e+05,7.441337648665767629e+05,7.578090233717032243e+05,7.677767673487733118e+05,7.708504444984970614e+05,7.817646031911598984e+05
7.482233183623956284e+05,7.421975219163270667e+05,7.548221732601074036e+05,7.669519104865592672e+05,7.701905590087258024e+05,7.813131025928952731e+05
7.459397672596347984e+05,7.401397211126985494e+05,7.524604778230316006e+05,7.660228611785919638e+05,7.695567216303929454e+05,7.810092079594481038e+05
7.440729859398873523e+05,7.383076706082022283e+05,7.499772245325768599e+05,7.649462059058074374e+05,7.688534226215578383e+05,7.805403419535580324e+05
7.420585986553225666e+05,7.361456773588203359e+05,7.478412793946332531e+05,7.639390122635251610e+05,7.682456333546632668e+05,7.800888413552936399e+05
7.398792399983152281e+05,7.339750014056257205e+05,7.455750936994981021e+05,7.627668472487999825e+05,7.675770651610794012e+05,7.794636866807733895e+05
7.377519775641844608e+05,7.321082200858782744e+05,7.434912447844311828e+05,7.614036627501937328e+05,7.668737661522442941e+05,7.788906282291301759e+05
7.357028594643685501e+05,7.300330538746240782e+05,7.413987131655514240e+05,7.600665263630258851e+05,7.660662746976559283e+05,7.783262524812995689e+05
7.336190105493017472e+05,7.277581854756760877e+05,7.392714507314206567e+05,7.584862742691000458e+05,7.653021967621314107e+05,7.776403188800900243e+05
7.315698924494859530e+05,7.256743365606091684e+05,7.372396980392304249e+05,7.567063199874804122e+05,7.645381188266068930e+05,7.771193566513232654e+05
7.293384375696018105e+05,7.236859973874827847e+05,7.351905799394146306e+05,7.549350484096735017e+05,7.636003868148266338e+05,7.766070771263693459e+05
7.271503962087815162e+05,7.215413695457264548e+05,7.326899612413343275e+05,7.529553919403599575e+05,7.627581645449871430e+05,7.759211435251598014e+05
7.251012781089658383e+05,7.194748860382850980e+05,7.306668912529569352e+05,7.509149565443570027e+05,7.616728265683897771e+05,7.751831137010735692e+05
7.230608427129627671e+05,7.173042100850903662e+05,7.285656769302644534e+05,7.488484730369156459e+05,7.605267096651030006e+05,7.744364011731744977e+05
7.210290900207725354e+05,7.152464092814618489e+05,7.263602701618187129e+05,7.466430662684697891e+05,7.592937657236885279e+05,7.737678329795906320e+05
7.194314725192212500e+05,7.130410025130161084e+05,7.242851039505646331e+05,7.439861589017595397e+05,7.578524368907671887e+05,7.730037550440661144e+05
7.175994220147249289e+05,7.110526633398897247e+05,7.222359858507488389e+05,7.415550018341814866e+05,7.565673967264759121e+05,7.722830906276054448e+05
7.157847369178541703e+05,7.094376804307129933e+05,7.204473488653163658e+05,7.390022869132246124e+05,7.553691836003124481e+05,7.714669164692042395e+05
7.140047826362345368e+05,7.077706012986593414e+05,7.185892502493817592e+05,7.366840049952126574e+05,7.538497104330762522e+05,7.704944536421730882e+05
7.124679440613727784e+05,7.060514259437292349e+05,7.163577953694976168e+05,7.343396749657624168e+05,7.523302372658398235e+05,7.695567216303929454e+05
7.109484708941363497e+05,7.042888370697350474e+05,7.142218502315540100e+05,7.323166049773849081e+05,7.506631581337864045e+05,7.684366528385444544e+05
7.092727090582700912e+05,7.026825368643710390e+05,7.122508764660533052e+05,7.302067079508797033e+05,7.489179346674178960e+05,7.674381419000749011e+05
7.077185050757827703e+05,7.011370155856964411e+05,7.104361913691824302e+05,7.283486093349449802e+05,7.473463652773048962e+05,7.661704671434093034e+05
7.063900513924275292e+05,6.996609559375240933e+05,7.088038430523800198e+05,7.263689528656315524e+05,7.457226996643153252e+05,7.650938118706247769e+05
7.049487225595063064e+05,6.980546557321599685e+05,7.072235909584544133e+05,7.245629504725735169e+05,7.439687934941339772e+05,7.639390122635251610e+05
7.036115861723384587e+05,6.967609328640559688e+05,7.055912426416520029e+05,7.223835918155660620e+05,7.420933294705738081e+05,7.628623569907406345e+05
7.023525941194854677e+05,6.952327769930069335e+05,7.041238656972923782e+05,7.204733969767546514e+05,7.404088849308947101e+05,7.615425860111981165e+05
7.010849193628197536e+05,6.939564195325283799e+05,7.025522963071793783e+05,7.187542216218245449e+05,7.385941998340239516e+05,7.604746134422263131e+05
6.999214370519074146e+05,6.927321582949266303e+05,7.008938998789385660e+05,7.171913349355243845e+05,7.365363990303953178e+05,7.591027462398073403e+05
6.985929833685522899e+05,6.915599932802015683e+05,6.994352056383917807e+05,7.153332363195896614e+05,7.345914733763328986e+05,7.577308790373882512e+05
6.972992605004481738e+05,6.903183666349741397e+05,6.977247129872743972e+05,7.136487917799106799e+05,7.323773839040743187e+05,7.564718869845353765e+05
6.961705090047869598e+05,6.890506918783084257e+05,6.962833841543531744e+05,7.119903953516698675e+05,7.301111982089390513e+05,7.552302603393079480e+05
6.947812763947424246e+05,6.878524787521449616e+05,6.950243921015001833e+05,7.104796048882463947e+05,7.279665703671827214e+05,7.539191720635783859e+05
6.934615054152000230e+05,6.866021694031048100e+05,6.935222843418894336e+05,7.086475543837500736e+05,7.262387123084397754e+05,7.525559875649721362e+05
6.924543117729177466e+05,6.852737157197496854e+05,6.922198787699727109e+05,7.071367639203266008e+05,7.242937866543773562e+05,7.512448992892425740e+05
6.912387332391287200e+05,6.840928680012117838e+05,6.910650791628730949e+05,7.055912426416520029e+05,7.227829961909537669e+05,7.499945899402024224e+05
6.899536930748373270e+05,6.828338759483589092e+05,6.898668660367096309e+05,7.041065002896668157e+05,7.209335802788319997e+05,7.485358956996556371e+05
6.887554799486739794e+05,6.815314703764419537e+05,6.886773356143590063e+05,7.026825368643710390e+05,7.191275778857740806e+05,7.471032495705471374e+05
6.873922954500677297e+05,6.802898437312146416e+05,6.873922954500677297e+05,7.011717464009475661e+05,7.174431333460948663e+05,7.454969493651830126e+05
6.862027650277169887e+05,6.790916306050511776e+05,6.860377936552742030e+05,6.998085619023413165e+05,7.156024001377858222e+05,7.440469378284489503e+05
6.849177248634257121e+05,6.778239558483854635e+05,6.846485610452295514e+05,6.980025595092832809e+05,7.140134653400473762e+05,7.425100992535870755e+05
6.838671177020795876e+05,6.765475983879070263e+05,6.835545403648194624e+05,6.965091344534853706e+05,7.124245305423088139e+05,7.407822411948442459e+05
6.827123180949798552e+05,6.755143566341863479e+05,6.822347693852771772e+05,6.951112191396279959e+05,7.107314032988168765e+05,7.389762388017862104e+05
6.812709892620586324e+05,6.742466818775206339e+05,6.809931427400497487e+05,6.937480346410217462e+05,7.094550458383384394e+05,7.373178423735455144e+05
6.800988242473335704e+05,6.730137379361061612e+05,6.796994198719457490e+05,6.922980231042876840e+05,7.080223997092299396e+05,7.352079453470401932e+05
6.790395343821744900e+05,6.719891788861982059e+05,6.783622834847777849e+05,6.909522040133069968e+05,7.063813686886148062e+05,7.333498467311055865e+05
6.779715618132028030e+05,6.705131192380257417e+05,6.770511952090482228e+05,6.896932119604540057e+05,7.048966263366296189e+05,7.315004308189837029e+05
6.767907140946647851e+05,6.694017331499900902e+05,6.759050783057614462e+05,6.885470950571672292e+05,7.031774509816993959e+05,7.297378419449896319e+05
6.757748377485696692e+05,6.684379530267716618e+05,6.746113554376573302e+05,6.872794203005016316e+05,7.017621702602165751e+05,7.281836379625021946e+05
6.745853073262190446e+05,6.672397399006081978e+05,6.736475753144389018e+05,6.860638417667124886e+05,7.003555722425463609e+05,7.265078761266359361e+05
6.732915844581150450e+05,6.661804500354492338e+05,6.722062464815176791e+05,6.847267053795446409e+05,6.988795125943740131e+05,7.251533743318424094e+05
6.719370826633215183e+05,6.649735542054729303e+05,6.709559371324775275e+05,6.833287900656872662e+05,6.975510589110188885e+05,7.235297087188528385e+05
6.703915613846469205e+05,6.637492929678711807e+05,6.697316758948756615e+05,6.822347693852771772e+05,6.962139225238509243e+05,7.218973604020504281e+05
6.691065212203556439e+05,6.626031760645844042e+05,6.686289725106528495e+05,6.807500270332919899e+05,6.945555260956101120e+05,7.202476466776224552e+05
6.678822599827538943e+05,6.611357991202246631e+05,6.675436345340554835e+05,6.792218711622429546e+05,6.932704859313188354e+05,7.186587118798838928e+05
6.666493160413393052e+05,6.597031529911162797e+05,6.663714695193303050e+05,6.779628791093899636e+05,6.917596954678953625e+05,7.171739695278988220e+05
6.654858337304268498e+05,6.584875744573272532e+05,6.652427180236690911e+05,6.768080795022903476e+05,6.903444147464124253e+05,7.158107850292925723e+05
6.642963033080762252e+05,6.572025342930359766e+05,6.640966011203823145e+05,6.756445971913780086e+05,6.891114708049979527e+05,7.140829269705495099e+05
6.629765323285338236e+05,6.561345617240641732e+05,6.628202436599038774e+05,6.744550667690273840e+05,6.879219403826472117e+05,7.127197424719432602e+05
6.618911943519364577e+05,6.549537140055262716e+05,6.616914921642426634e+05,6.732308055314256344e+05,6.863937845115981763e+05,7.112610482313964749e+05
6.607277120410241187e+05,6.537034046564861201e+05,6.603890865923257079e+05,6.721107367395771435e+05,6.850566481244302122e+05,7.097242096565346001e+05
6.596250086568013066e+05,6.525746531608249061e+05,6.587827863869616995e+05,6.709038409096008400e+05,6.838497522944539087e+05,7.082047364892982878e+05
6.584441609382634051e+05,6.514632670727892546e+05,6.576887657065516105e+05,6.696708969681862509e+05,6.826775872797288466e+05,7.068849655097558862e+05
6.572980440349765122e+05,6.502303231313746655e+05,6.564992352842008695e+05,6.685074146572739119e+05,6.811581141124925343e+05,7.055130983073369134e+05
6.563950428384474944e+05,6.490842062280877726e+05,6.552836567504118429e+05,6.671615955662932247e+05,6.797428333910095971e+05,7.040023078439134406e+05
6.552315605275351554e+05,6.479901855476776836e+05,6.540767609204356559e+05,6.659720651439424837e+05,6.783709661885905080e+05,7.028648736444393871e+05
6.540941263280612184e+05,6.467919724215142196e+05,6.529653748324000044e+05,6.647478039063407341e+05,6.768601757251670351e+05,7.013801312924543163e+05
6.531563943162810756e+05,6.458716058173597557e+05,6.518453060405515134e+05,6.635148599649261450e+05,6.758095685638209106e+05,7.000777257205373608e+05
6.520189601168071385e+05,6.447254889140728628e+05,6.505949966915113619e+05,6.621603581701326184e+05,6.745505765109679196e+05,6.987492720371822361e+05
6.510378145859630313e+05,6.436748817527267383e+05,6.494315143805990228e+05,6.608753180058414582e+05,6.732394882352383574e+05,6.973339913156992989e+05
6.500566690551190404e+05,6.427718805561977206e+05,6.482680320696866838e+05,6.597465665101801278e+05,6.720325924052620539e+05,6.959794895209058886e+05
6.492144467852795497e+05,6.416778598757876316e+05,6.472087422045277199e+05,6.585570360878293868e+05,6.708864755019752774e+05,6.944339682422312908e+05
6.482593493658738444e+05,6.406098873068158282e+05,6.461841831546197645e+05,6.572980440349765122e+05,6.697664067101267865e+05,6.929579085940589430e+05
6.474605406150982017e+05,6.398023958522273460e+05,6.451943549199629342e+05,6.560998309088130482e+05,6.685681935839634389e+05,6.917423300602698000e+05
6.465228086033181753e+05,6.388993946556983283e+05,6.440569207204888808e+05,6.550318583398413612e+05,6.673612977539871354e+05,6.905180688226680504e+05
6.456545382220402826e+05,6.379529799401054624e+05,6.430236789667682024e+05,6.538336452136777807e+05,6.660415267744447337e+05,6.893893173270068364e+05
6.447775851369496668e+05,6.370933922626404092e+05,6.420512161397370510e+05,6.526354320875143167e+05,6.650516985397879034e+05,6.882171523122816579e+05
6.440135072014250327e+05,6.361382948432348203e+05,6.410440224974547746e+05,6.515848249261681922e+05,6.636711486335560912e+05,6.869147467403648188e+05
6.431712849315855419e+05,6.353828996115230257e+05,6.399847326322956942e+05,6.503692463923791656e+05,6.623947911730776541e+05,6.855862930570096942e+05
6.425374475532526849e+05,6.344191194883045973e+05,6.391859238815200515e+05,6.492491776005306747e+05,6.610750201935352525e+05,6.841015507050245069e+05
6.415823501338469796e+05,6.335855799222778296e+05,6.382221437583016232e+05,6.480162336591160856e+05,6.600417784398145741e+05,6.830422608398655429e+05
6.408009067906968994e+05,6.328909636172554456e+05,6.373278252655854449e+05,6.469395783863314427e+05,6.587133247564594494e+05,6.818787785289532039e+05
6.399065882979807211e+05,6.322918570541738300e+05,6.364508721804947127e+05,6.461147215241175145e+05,6.575758905569855124e+05,6.804548151036574272e+05
6.391598757700817659e+05,6.315104137110236334e+05,6.355826017992169363e+05,6.450988451780223986e+05,6.562995330965070752e+05,6.791610922355534276e+05
6.382916053888038732e+05,6.307723838869375177e+05,6.346882833065006416e+05,6.439266801632972201e+05,6.551968297122841468e+05,6.779802445170155261e+05
6.375535755647176411e+05,6.299648924323490355e+05,6.339068399633506779e+05,6.430323616705810418e+05,6.540680782166228164e+05,6.768080795022903476e+05
6.369197381863847841e+05,6.293657858692673035e+05,6.330559349896982312e+05,6.418515139520431403e+05,6.530087883514638525e+05,6.755143566341863479e+05
6.364074586614308646e+05,6.286798522680577589e+05,6.322571262389225885e+05,6.407661759754457744e+05,6.518800368558026385e+05,6.743942878423378570e+05
6.359820061746047577e+05,6.279852359630354913e+05,6.316493369720281335e+05,6.398979055941679981e+05,6.505949966915113619e+05,6.732047574199872324e+05
6.354523612420252757e+05,6.274469083266431699e+05,6.308678936288780533e+05,6.389601735823878553e+05,6.493533700462840497e+05,6.720065442938237684e+05
6.348445719751307042e+05,6.269346288016892504e+05,6.300951329895406961e+05,6.380832204972971231e+05,6.484156380345039070e+05,6.707041387219069293e+05
6.341673210777339991e+05,6.264570800919864560e+05,6.293136896463906160e+05,6.372409982274576323e+05,6.474605406150982017e+05,6.694711947804923402e+05
6.335768972184649901e+05,6.258666562327174470e+05,6.286798522680577589e+05,6.363466797347414540e+05,6.463665199346881127e+05,6.682729816543288762e+05
6.331861755468900083e+05,6.254064729306402151e+05,6.279678705554099288e+05,6.355131401687146863e+05,6.452551338466524612e+05,6.670139896014760016e+05
6.326217997990592849e+05,6.247465874408690725e+05,6.272645715465749381e+05,6.344972638226195704e+05,6.443608153539361665e+05,6.658591899943763856e+05
6.320053278283521067e+05,6.242343079159151530e+05,6.267088785025570542e+05,6.336897723680312047e+05,6.434230833421561401e+05,6.646957076834640466e+05
6.314409520805213833e+05,6.236525667604588671e+05,6.261618681623520097e+05,6.330038387668216601e+05,6.421640912893031491e+05,6.636277351144922432e+05
6.308244801098140888e+05,6.231489699393176707e+05,6.257364156755257864e+05,6.321529337931693299e+05,6.412003111660847208e+05,6.626552722874610918e+05
6.302861524734218838e+05,6.226453731181765907e+05,6.252241361505718669e+05,6.315190964148364728e+05,6.402104829314280069e+05,6.615178380879870383e+05
6.298346518751573749e+05,6.219420741093416000e+05,6.246684431065540994e+05,6.305987298106818926e+05,6.393595779577756766e+05,6.603717211847002618e+05
6.294005166845184285e+05,6.214471599920131266e+05,6.240867019510979299e+05,6.299041135056596249e+05,6.384131632421828108e+05,6.592777005042900564e+05
6.289837469015050447e+05,6.209782939861230552e+05,6.234789126842033584e+05,6.291313528663222678e+05,6.375362101570921950e+05,6.581836798238799674e+05
6.284541019689255627e+05,6.206223031297990819e+05,6.230100466783132870e+05,6.284627846727382857e+05,6.368415938520698110e+05,6.572459478120999411e+05
6.279070916287205182e+05,6.201534371239091270e+05,6.223675265961677069e+05,6.278289472944055451e+05,6.359385926555407932e+05,6.562474368736302713e+05
6.275163699571454199e+05,6.196845711180190556e+05,6.219420741093416000e+05,6.270996001741320360e+05,6.350008606437607668e+05,6.553618010847268160e+05
6.269954077283786610e+05,6.192243878159417072e+05,6.214124291767620016e+05,6.265178590186759830e+05,6.340891767434189096e+05,6.543372420348189771e+05
6.267609747254337417e+05,6.189118104786818149e+05,6.207004474641141715e+05,6.258232427136535989e+05,6.332643198812049814e+05,6.533126829849111382e+05
6.262921087195436703e+05,6.184255790651660645e+05,6.201013409010324394e+05,6.254412037458913401e+05,6.325783862799955532e+05,6.522794412311904598e+05
6.258232427136535989e+05,6.180261746897783596e+05,6.198148116752107162e+05,6.250070685552523937e+05,6.317535294177815085e+05,6.512635648850953439e+05
6.255714443030830007e+05,6.175573086838882882e+05,6.194067245960101718e+05,6.244687409188600723e+05,6.311110093356359284e+05,6.505515831724475138e+05
6.253804248192018131e+05,6.171839524199387524e+05,6.191462434816267341e+05,6.239130478748423047e+05,6.302253735467324732e+05,6.495617549377906835e+05
6.249897031476268312e+05,6.167584999331126455e+05,6.186339639566728147e+05,6.233920856460755458e+05,6.294091993883312680e+05,6.485024650726316031e+05
6.246771258103668224e+05,6.164719707072909223e+05,6.182866558041616809e+05,6.228624407134960638e+05,6.286103906375555089e+05,6.475039541341621662e+05
6.243819138807323761e+05,6.163417301500991452e+05,6.179132995402121451e+05,6.222112379275376443e+05,6.279939186668483308e+05,6.465054431956924964e+05
6.240953846549106529e+05,6.159683738861497259e+05,6.174183854228837881e+05,6.218118335521498229e+05,6.272906196580132237e+05,6.456545382220402826e+05
6.238869997634039028e+05,6.156992100679535652e+05,6.170971253818109399e+05,6.211345826547531178e+05,6.265873206491781166e+05,6.448904602865157649e+05
6.237480765023994027e+05,6.152998056925657438e+05,6.166369420797337079e+05,6.207091301679268945e+05,6.260229449013475096e+05,6.440916515357401222e+05
6.235744224261438940e+05,6.151435170239357976e+05,6.162983166310352972e+05,6.202663122734752251e+05,6.255280307840191526e+05,6.431365541163344169e+05
6.233747202384499833e+05,6.148830359095523600e+05,6.159336430708986009e+05,6.196932538218317786e+05,6.250678474819418043e+05,6.421988221045542741e+05
6.230795083088155370e+05,6.147267472409222974e+05,6.156818446603280026e+05,6.192417532235672697e+05,6.245295198455495993e+05,6.414868403919064440e+05
6.228190271944322158e+05,6.146225547951690387e+05,6.154126808421318419e+05,6.187902526253027609e+05,6.240085576167828403e+05,6.406967143449436408e+05
6.225672287838615011e+05,6.144141699036622886e+05,6.151087862086846726e+05,6.184689925842300290e+05,6.235310089070800459e+05,6.397763477407890605e+05
6.223762092999804299e+05,6.142665639388450654e+05,6.148656705019267974e+05,6.180261746897783596e+05,6.231055564202538226e+05,6.390296352128901053e+05
6.221157281855969923e+05,6.138671595634572441e+05,6.145009969417901011e+05,6.175399432762626093e+05,6.225238152647976531e+05,6.380832204972971231e+05
6.220028530360310106e+05,6.137456017100784229e+05,6.142665639388450654e+05,6.171144907894365024e+05,6.220115357398437336e+05,6.372409982274576323e+05
6.216989584025837248e+05,6.134938032995078247e+05,6.140581790473383153e+05,6.166803555987975560e+05,6.213950637691364391e+05,6.365724300338737667e+05
6.214471599920131266e+05,6.132072740736861015e+05,6.138845249710829230e+05,6.164546052996653598e+05,6.208480534289313946e+05,6.359299099517280702e+05
6.212561405081319390e+05,6.129641583669282263e+05,6.137976979329551104e+05,6.158728641442091903e+05,6.203184084963519126e+05,6.352526590543313650e+05
6.211172172471275553e+05,6.127905042906727176e+05,6.135458995223843958e+05,6.154560943611956900e+05,6.197279846370829036e+05,6.346882833065006416e+05
6.210477556166253053e+05,6.126168502144172089e+05,6.133027838156266371e+05,6.151435170239357976e+05,6.193025321502566803e+05,6.339936670014783740e+05
6.208306880213058321e+05,6.124605615457871463e+05,6.130943989241198869e+05,6.149698629476801725e+05,6.188857623672434129e+05,6.335768972184649901e+05
6.207178128717396175e+05,6.122782247657186817e+05,6.127905042906727176e+05,6.146138720913563157e+05,6.184168963613533415e+05,6.330559349896982312e+05
6.204920625726074213e+05,6.121045706894631730e+05,6.125387058801021194e+05,6.143099774579090299e+05,6.179653957630888326e+05,6.325436554647443118e+05
6.202576295696623856e+05,6.119482820208332269e+05,6.124084653229104588e+05,6.140321309359001461e+05,6.175833567953265738e+05,6.320487413474159548e+05
6.202576295696623856e+05,6.118354068712670123e+05,6.122174458390292712e+05,6.137021881910144584e+05,6.172447313466281630e+05,6.313975385614575353e+05
6.199450522324023768e+05,6.117051663140753517e+05,6.120524744665864855e+05,6.134764378918821458e+05,6.167758653407382080e+05,6.309286725555674639e+05
6.198495424904618412e+05,6.115228295340070035e+05,6.119309166132075479e+05,6.132506875927499495e+05,6.162809512234097347e+05,6.303469314001112944e+05
6.196932538218317786e+05,6.112883965310619678e+05,6.117659452407647623e+05,6.130596681088688783e+05,6.159770565899624489e+05,6.298172864675318124e+05
6.195109170417634305e+05,6.112536657158108428e+05,6.115749257568836911e+05,6.129815237745539052e+05,6.156557965488897171e+05,6.291921317930117948e+05
6.193980418921973323e+05,6.111668386776830303e+05,6.113318100501258159e+05,6.127123599563577445e+05,6.152303440620634938e+05,6.288361409366878215e+05
6.192851667426312342e+05,6.110539635281169321e+05,6.112623484196236823e+05,6.125213404724765569e+05,6.148396223904885119e+05,6.285409290070532588e+05
6.192157051121289842e+05,6.108108478213591734e+05,6.110886943433680572e+05,6.122782247657186817e+05,6.144402180151006905e+05,6.279591878515970893e+05
6.191549261854394572e+05,6.107327034870440839e+05,6.109324056747381110e+05,6.120785225780248875e+05,6.142318331235939404e+05,6.275597834762093844e+05
6.188336661443667253e+05,6.106719245603546733e+05,6.107761170061080484e+05,6.118180414636415662e+05,6.139539866015850566e+05,6.270301385436299024e+05
6.185210888071067166e+05,6.106892899679802358e+05,6.105416840031630127e+05,6.116357046835731016e+05,6.135806303376356373e+05,6.267349266139953397e+05
6.183300693232255289e+05,6.104809050764736021e+05,6.105156358917246107e+05,6.114707333111303160e+05,6.133375146308777621e+05,6.262313297928542597e+05
6.181824633584083058e+05,6.103159337040308164e+05,6.104114434459713520e+05,6.112883965310619678e+05,6.130943989241198869e+05,6.259621659746579826e+05
6.181390498393444577e+05,6.102638374811541289e+05,6.102117412582773250e+05,6.111234251586191822e+05,6.128339178097365657e+05,6.253543767077635275e+05
6.180174919859655201e+05,6.100641352934601018e+05,6.100467698858346557e+05,6.110452808243042091e+05,6.125821193991659675e+05,6.250157512590651168e+05
6.177049146487055114e+05,6.100033563667706912e+05,6.100033563667706912e+05,6.108108478213591734e+05,6.123910999152848963e+05,6.246163468836772954e+05
6.174010200152582256e+05,6.098904812172045931e+05,6.100033563667706912e+05,6.105764148184141377e+05,6.122955901733442442e+05,6.243298176578555722e+05
6.172447313466281630e+05,6.097255098447618075e+05,6.098644331057663076e+05,6.104288088535969146e+05,6.120698398742120480e+05,6.239825095053445548e+05
6.170016156398704043e+05,6.096647309180723969e+05,6.097341925485746469e+05,6.104201261497840751e+05,6.118267241674542893e+05,6.234962780918289209e+05
6.169842502322448418e+05,6.094737114341912093e+05,6.095605384723190218e+05,6.101683277392134769e+05,6.116357046835731016e+05,6.230708256050026976e+05
6.168800577864914667e+05,6.093347881731867092e+05,6.094650287303784862e+05,6.099686255515196826e+05,6.114273197920664679e+05,6.227842963791809743e+05
6.168019134521764936e+05,6.092826919503101381e+05,6.093521535808122717e+05,6.098817985133918701e+05,6.111581559738703072e+05,6.225672287838615011e+05
6.168366442674276186e+05,6.092132303198078880e+05,6.092305957274334505e+05,6.096300001028212719e+05,6.110279154166785302e+05,6.222633341504143318e+05
6.167064037102359580e+05,6.091437686893056380e+05,6.091437686893056380e+05,6.095952692875701468e+05,6.108803094518613070e+05,6.218639297750265105e+05
6.166282593759208685e+05,6.091090378740545129e+05,6.089353837977990042e+05,6.094042498036889592e+05,6.106545591527291108e+05,6.215166216225152602e+05
6.166282593759208685e+05,6.091090378740545129e+05,6.089440665016117273e+05,6.091698168007439235e+05,6.104809050764736021e+05,6.214124291767620016e+05
6.165761631530441809e+05,6.090743070588033879e+05,6.087704124253562186e+05,6.092045476159950485e+05,6.103506645192818251e+05,6.211085345433147158e+05
6.165935285606697435e+05,6.090048454283012543e+05,6.086314891643517185e+05,6.091437686893056380e+05,6.100207217743962537e+05,6.208914669479952427e+05
6.165587977454186184e+05,6.090135281321139773e+05,6.085446621262239059e+05,6.090482589473651024e+05,6.098991639210174326e+05,6.207091301679268945e+05
6.163938263729759492e+05,6.088659221672967542e+05,6.085186140147855040e+05,6.089093356863606023e+05,6.096994617333234055e+05,6.205094279802329838e+05
6.163243647424736992e+05,6.088746048711094772e+05,6.084317869766578078e+05,6.087617297215433791e+05,6.096386828066339949e+05,6.202663122734752251e+05
6.162635858157841722e+05,6.089353837977990042e+05,6.083970561614066828e+05,6.086141237567261560e+05,6.095431730646934593e+05,6.199797830476535019e+05
6.162201722967203241e+05,6.087443643139178166e+05,6.084231042728449684e+05,6.085272967185983434e+05,6.093695189884379506e+05,6.197106192294573411e+05
6.162983166310352972e+05,6.087096334986666916e+05,6.084231042728449684e+05,6.084144215690322453e+05,6.091784995045567630e+05,6.195543305608273949e+05
6.162983166310352972e+05,6.085793929414750310e+05,6.083796907537811203e+05,6.083536426423427183e+05,6.089614319092372898e+05,6.192070224083162611e+05
6.162462204081587261e+05,6.086141237567261560e+05,6.082928637156533077e+05,6.081452577508360846e+05,6.089267010939861648e+05,6.190246856282477966e+05
6.161159798509669490e+05,6.085707102376623079e+05,6.082581329004021827e+05,6.081105269355849596e+05,6.088138259444199502e+05,6.188423488481795648e+05
6.161767587776564760e+05,6.086401718681645580e+05,6.082494501965894597e+05,6.079281901555166114e+05,6.086054410529133165e+05,6.185905504376088502e+05
6.162028068890947616e+05,6.086228064605388790e+05,6.081713058622743702e+05,6.078413631173887989e+05,6.085099313109727809e+05,6.184429444727916270e+05
6.161333452585925115e+05,6.086488545719772810e+05,6.080410653050827095e+05,6.076850744487588527e+05,6.085533448300367454e+05,6.181998287660338683e+05
6.161941241852819221e+05,6.085707102376623079e+05,6.079716036745805759e+05,6.075982474106310401e+05,6.083710080499682808e+05,6.179914438745271182e+05
6.161072971471542260e+05,6.085707102376623079e+05,6.078760939326399239e+05,6.075461511877543526e+05,6.082841810118404683e+05,6.177483281677693594e+05
6.160031047014008509e+05,6.085359794224110665e+05,6.078500458212015219e+05,6.075027376686905045e+05,6.081365750470232451e+05,6.175573086838882882e+05
6.159510084785241634e+05,6.085446621262239059e+05,6.079629209707677364e+05,6.076069301144438796e+05,6.080236998974571470e+05,6.174531162381347967e+05
6.159683738861497259e+05,6.084665177919089328e+05,6.079021420440783259e+05,6.075201030763160670e+05,6.078674112288272008e+05,6.173749719038198236e+05
6.159770565899624489e+05,6.083796907537811203e+05,6.079368728593293345e+05,6.074766895572521025e+05,6.077719014868865488e+05,6.170710772703726543e+05
6.159944219975880114e+05,6.083362772347172722e+05,6.079021420440783259e+05,6.074159106305626919e+05,6.077284879678227007e+05,6.168713750826787436e+05
6.160638836280902615e+05,6.081799885660872096e+05,6.078413631173887989e+05,6.073377662962476024e+05,6.075027376686905045e+05,6.167671826369253686e+05
6.159075949594601989e+05,6.081713058622743702e+05,6.077979495983249508e+05,6.073204008886220399e+05,6.074853722610648256e+05,6.166716728949848330e+05
6.158815468480220297e+05,6.081626231584616471e+05,6.079021420440783259e+05,6.072596219619326293e+05,6.072422565543070668e+05,6.165761631530441809e+05
6.158120852175197797e+05,6.082754983080277452e+05,6.078066323021376738e+05,6.071554295161793707e+05,6.071033332933025667e+05,6.164025090767886722e+05
6.158294506251452258e+05,6.083015464194660308e+05,6.077024398563842988e+05,6.071033332933025667e+05,6.070338716628003167e+05,6.161072971471542260e+05
6.157947198098942172e+05,6.082234020851510577e+05,6.075982474106310401e+05,6.070165062551748706e+05,6.068862656979830936e+05,6.157860371060813777e+05
6.157860371060813777e+05,6.082147193813382182e+05,6.075374684839416295e+05,6.069730927361109061e+05,6.068602175865448080e+05,6.156297484374513151e+05
6.156123830298257526e+05,6.081799885660872096e+05,6.074766895572521025e+05,6.069991408475493081e+05,6.068341694751065224e+05,6.153866327306935564e+05
6.155950176222001901e+05,6.082147193813382182e+05,6.075461511877543526e+05,6.070512370704259956e+05,6.068254867712936830e+05,6.152390267658762168e+05
6.155342386955107795e+05,6.082234020851510577e+05,6.074593241496265400e+05,6.069991408475493081e+05,6.067820732522298349e+05,6.151348343201229582e+05
6.154908251764469314e+05,6.081626231584616471e+05,6.074940549648776650e+05,6.069644100322981831e+05,6.067994386598553974e+05,6.150045937629312975e+05
6.154560943611956900e+05,6.079629209707677364e+05,6.075027376686905045e+05,6.069470446246726206e+05,6.067386597331658704e+05,6.149351321324290475e+05
6.155168732878852170e+05,6.080063344898315845e+05,6.073985452229371294e+05,6.069383619208598975e+05,6.066605153988508973e+05,6.149264494286163244e+05
6.154995078802596545e+05,6.079021420440783259e+05,6.074245933343754150e+05,6.069383619208598975e+05,6.066171018797870493e+05,6.147875261676118243e+05
6.155863349183874670e+05,6.078500458212015219e+05,6.074680068534393795e+05,6.068949484017959330e+05,6.066084191759742098e+05,6.146746510180457262e+05
6.155776522145747440e+05,6.078847766364527633e+05,6.074593241496265400e+05,6.069383619208598975e+05,6.064781786187825492e+05,6.145009969417901011e+05
6.155255559916979400e+05,6.078153150059505133e+05,6.074159106305626919e+05,6.067994386598553974e+05,6.064347650997187011e+05,6.144054871998495655e+05
6.155689695107619045e+05,6.079455555631421739e+05,6.073204008886220399e+05,6.067994386598553974e+05,6.063305726539653260e+05,6.143794390884111635e+05
6.155689695107619045e+05,6.079629209707677364e+05,6.072509392581197899e+05,6.067733905484169954e+05,6.062176975043991115e+05,6.143099774579090299e+05
6.155342386955107795e+05,6.080063344898315845e+05,6.072596219619326293e+05,6.067039289179148618e+05,6.062697937272759154e+05,6.142926120502834674e+05
6.153519019154424313e+05,6.079629209707677364e+05,6.072075257390559418e+05,6.065910537683486473e+05,6.063479380615908885e+05,6.141623714930918068e+05
6.154039981383191189e+05,6.079281901555166114e+05,6.071206987009281293e+05,6.067212943255404243e+05,6.064000342844675761e+05,6.141797369007173693e+05
6.153779500268807169e+05,6.079368728593293345e+05,6.070338716628003167e+05,6.067126116217275849e+05,6.062871591349013615e+05,6.140494963435255922e+05
6.153866327306935564e+05,6.079281901555166114e+05,6.071554295161793707e+05,6.067212943255404243e+05,6.062437456158375135e+05,6.140321309359001461e+05
6.154039981383191189e+05,6.078326804135760758e+05,6.071033332933025667e+05,6.065997364721614867e+05,6.062263802082119510e+05,6.140060828244617442e+05
6.152563921735018957e+05,6.078326804135760758e+05,6.071554295161793707e+05,6.065823710645359242e+05,6.061829666891481029e+05,6.140147655282744672e+05
6.152216613582507707e+05,6.077284879678227007e+05,6.071988430352432188e+05,6.065563229530976387e+05,6.062090148005863884e+05,6.139453038977723336e+05
6.152998056925657438e+05,6.077719014868865488e+05,6.071901603314303793e+05,6.064434478035314241e+05,6.062090148005863884e+05,6.138932076748956461e+05
6.153519019154424313e+05,6.077719014868865488e+05,6.071380641085536918e+05,6.064608132111569867e+05,6.061482358738969779e+05,6.137629671177038690e+05
6.153084883963784669e+05,6.077892668945121113e+05,6.072248911466815043e+05,6.064173996920931386e+05,6.060093126128924778e+05,6.136848227833888959e+05
6.153171711001913063e+05,6.078239977097633528e+05,6.071901603314303793e+05,6.063739861730291741e+05,6.060006299090796383e+05,6.136848227833888959e+05
6.152563921735018957e+05,6.078066323021376738e+05,6.070251889589875937e+05,6.063132072463397635e+05,6.059051201671392191e+05,6.136327265605122084e+05
6.153258538040040294e+05,6.078934593402654864e+05,6.070165062551748706e+05,6.062003320967736654e+05,6.059311682785775047e+05,6.136761400795761729e+05
6.153432192116297083e+05,6.078326804135760758e+05,6.069991408475493081e+05,6.061916493929609424e+05,6.060266780205180403e+05,6.137021881910144584e+05
6.154300462497575209e+05,6.078674112288272008e+05,6.069209965132343350e+05,6.061916493929609424e+05,6.059919472052669153e+05,6.137195535986400209e+05
6.154039981383191189e+05,6.078587285250143614e+05,6.070078235513621476e+05,6.062437456158375135e+05,6.059745817976414692e+05,6.136414092643250478e+05
6.154300462497575209e+05,6.078066323021376738e+05,6.069470446246726206e+05,6.062697937272759154e+05,6.058790720557008171e+05,6.136414092643250478e+05
6.153866327306935564e+05,6.078326804135760758e+05,6.070425543666131562e+05,6.063218899501524866e+05,6.059398509823902277e+05,6.136066784490739228e+05
6.152737575811274583e+05,6.077458533754482633e+05,6.070512370704259956e+05,6.063045245425269241e+05,6.058877547595136566e+05,6.135979957452610834e+05
6.152563921735018957e+05,6.077284879678227007e+05,6.070946505894898437e+05,6.062958418387142010e+05,6.058964374633263797e+05,6.135893130414483603e+05
6.152129786544380477e+05,6.077111225601971382e+05,6.071033332933025667e+05,6.062437456158375135e+05,6.058617066480752546e+05,6.135285341147588333e+05
6.152042959506252082e+05,6.077198052640098613e+05,6.070946505894898437e+05,6.063045245425269241e+05,6.058356585366369691e+05,6.133982935575671727e+05
6.151435170239357976e+05,6.076937571525715757e+05,6.071033332933025667e+05,6.062697937272759154e+05,6.057748796099474421e+05,6.133461973346906016e+05
6.151869305429996457e+05,6.077198052640098613e+05,6.070686024780515581e+05,6.061482358738969779e+05,6.056446390527557814e+05,6.133548800385033246e+05
